Lab3/verilog/cpu.vcd
$date
	Sun Nov 22 00:43:19 2015
$end
$version
	Icarus Verilog
$end
$timescale
	1s
$end
$scope module testCPU $end
$var reg 1 ! clk $end
$var integer 32 " index [31:0] $end
$scope module ourCpu $end
$var wire 6 # ALUOP [5:0] $end
$var wire 1 $ ALU_SRCA $end
$var wire 2 % ALU_SRCB [1:0] $end
$var wire 32 & A_AluMuxA [31:0] $end
$var wire 1 ' A_WE $end
$var wire 32 ( AluMuxA_Alu [31:0] $end
$var wire 32 ) AluMuxB_Alu [31:0] $end
$var wire 32 * AluRes_out [31:0] $end
$var wire 32 + Alu_out [31:0] $end
$var wire 1 , B_WE $end
$var wire 32 - B_out [31:0] $end
$var wire 32 . Concat_PCMux [31:0] $end
$var wire 32 / DM_out [31:0] $end
$var wire 2 0 DST [1:0] $end
$var wire 5 1 DstMux_RegFile [4:0] $end
$var wire 26 2 IR_Concat [25:0] $end
$var wire 6 3 IR_FSM_funct [5:0] $end
$var wire 6 4 IR_FSM_opcode [5:0] $end
$var wire 16 5 IR_Imm16 [15:0] $end
$var wire 5 6 IR_Rd [4:0] $end
$var wire 5 7 IR_Rs [4:0] $end
$var wire 5 8 IR_Rt [4:0] $end
$var wire 1 9 IR_WE $end
$var wire 32 : MDR_RegMux [31:0] $end
$var wire 1 ; MEMIN $end
$var wire 1 < MEM_WE $end
$var wire 32 = MemMux_DM [31:0] $end
$var wire 32 > PCMux_PC [31:0] $end
$var wire 2 ? PC_SRC [1:0] $end
$var wire 1 @ PC_WE $end
$var wire 32 A PC_out [31:0] $end
$var wire 1 B REGIN $end
$var wire 1 C REG_WE $end
$var wire 32 D RegFile_A [31:0] $end
$var wire 32 E RegFile_B [31:0] $end
$var wire 32 F RegMux_RegFile [31:0] $end
$var wire 32 G SEImm_out [31:0] $end
$var wire 32 H Shifter_AluMuxB [31:0] $end
$var wire 1 I clk $end
$var wire 1 J zeroflag $end
$scope module FSM $end
$var wire 6 K IR_ALU_OP [5:0] $end
$var wire 1 I clk $end
$var wire 6 L instr [5:0] $end
$var wire 4 M next_state [3:0] $end
$var wire 1 J zeroflag $end
$var reg 6 N ALU_OP [5:0] $end
$var reg 1 O ALU_SRCA $end
$var reg 2 P ALU_SRCB [1:0] $end
$var reg 1 Q A_WE $end
$var reg 1 R B_WE $end
$var reg 2 S DST [1:0] $end
$var reg 1 T IR_WE $end
$var reg 1 U MEM_IN $end
$var reg 1 V MEM_WE $end
$var reg 2 W PC_SRC [1:0] $end
$var reg 1 X PC_WE $end
$var reg 1 Y REG_IN $end
$var reg 1 Z REG_WE $end
$var reg 4 [ state [3:0] $end
$scope module LUT $end
$var wire 1 I clk $end
$var wire 6 \ opcode [5:0] $end
$var wire 4 ] state [3:0] $end
$var reg 4 ^ next_state [3:0] $end
$upscope $end
$upscope $end
$scope module PC $end
$var wire 1 I clk $end
$var wire 32 _ in [31:0] $end
$var wire 1 @ wr_enable $end
$var reg 32 ` q [31:0] $end
$upscope $end
$scope module MDR $end
$var wire 1 I clk $end
$var wire 32 a in [31:0] $end
$var wire 1 b wr_enable $end
$var reg 32 c q [31:0] $end
$upscope $end
$scope module A $end
$var wire 1 I clk $end
$var wire 32 d in [31:0] $end
$var wire 1 e wr_enable $end
$var reg 32 f q [31:0] $end
$upscope $end
$scope module B $end
$var wire 1 I clk $end
$var wire 32 g in [31:0] $end
$var wire 1 h wr_enable $end
$var reg 32 i q [31:0] $end
$upscope $end
$scope module Alu_Res $end
$var wire 1 I clk $end
$var wire 32 j in [31:0] $end
$var wire 1 k wr_enable $end
$var reg 32 l q [31:0] $end
$upscope $end
$scope module DM $end
$var wire 32 m address [31:0] $end
$var wire 1 I clk $end
$var wire 32 n din [31:0] $end
$var wire 32 o dout [31:0] $end
$var wire 1 < wr_enable $end
$upscope $end
$scope module IR $end
$var wire 1 9 IR_WE $end
$var wire 1 I clk $end
$var wire 32 p instr [31:0] $end
$var reg 26 q J_addr [25:0] $end
$var reg 5 r Rd [4:0] $end
$var reg 5 s Rs [4:0] $end
$var reg 5 t Rt [4:0] $end
$var reg 6 u funct [5:0] $end
$var reg 16 v imm [15:0] $end
$var reg 6 w opcode [5:0] $end
$upscope $end
$scope module Concat $end
$var wire 32 x PC [31:0] $end
$var wire 32 y concat [31:0] $end
$var wire 26 z dout [25:0] $end
$upscope $end
$scope module SignExtend $end
$var wire 16 { imm [15:0] $end
$var wire 32 | se [31:0] $end
$upscope $end
$scope module ShifterLeft2 $end
$var wire 32 } in [31:0] $end
$var wire 32 ~ out [31:0] $end
$upscope $end
$scope module RegisterFile $end
$var wire 1 I Clk $end
$var wire 32 !" ReadData1 [31:0] $end
$var wire 32 "" ReadData2 [31:0] $end
$var wire 5 #" ReadRegister1 [4:0] $end
$var wire 5 $" ReadRegister2 [4:0] $end
$var wire 1 C RegWrite $end
$var wire 32 %" RegisterToWrite [31:0] $end
$var wire 32 &" WriteData [31:0] $end
$var wire 5 '" WriteRegister [4:0] $end
$scope module decoder1 $end
$var wire 5 (" address [4:0] $end
$var wire 1 C enable $end
$var wire 32 )" out [31:0] $end
$upscope $end
$scope module register0 $end
$var wire 1 I clk $end
$var wire 32 *" d [31:0] $end
$var wire 32 +" q [31:0] $end
$var wire 1 ," wrenable $end
$upscope $end
$scope module mux1 $end
$var wire 5 -" address [4:0] $end
$var wire 32 ." input0 [31:0] $end
$var wire 32 /" input1 [31:0] $end
$var wire 32 0" input10 [31:0] $end
$var wire 32 1" input11 [31:0] $end
$var wire 32 2" input12 [31:0] $end
$var wire 32 3" input13 [31:0] $end
$var wire 32 4" input14 [31:0] $end
$var wire 32 5" input15 [31:0] $end
$var wire 32 6" input16 [31:0] $end
$var wire 32 7" input17 [31:0] $end
$var wire 32 8" input18 [31:0] $end
$var wire 32 9" input19 [31:0] $end
$var wire 32 :" input2 [31:0] $end
$var wire 32 ;" input20 [31:0] $end
$var wire 32 <" input21 [31:0] $end
$var wire 32 =" input22 [31:0] $end
$var wire 32 >" input23 [31:0] $end
$var wire 32 ?" input24 [31:0] $end
$var wire 32 @" input25 [31:0] $end
$var wire 32 A" input26 [31:0] $end
$var wire 32 B" input27 [31:0] $end
$var wire 32 C" input28 [31:0] $end
$var wire 32 D" input29 [31:0] $end
$var wire 32 E" input3 [31:0] $end
$var wire 32 F" input30 [31:0] $end
$var wire 32 G" input31 [31:0] $end
$var wire 32 H" input4 [31:0] $end
$var wire 32 I" input5 [31:0] $end
$var wire 32 J" input6 [31:0] $end
$var wire 32 K" input7 [31:0] $end
$var wire 32 L" input8 [31:0] $end
$var wire 32 M" input9 [31:0] $end
$var wire 32 N" out [31:0] $end
$upscope $end
$scope module mux2 $end
$var wire 5 O" address [4:0] $end
$var wire 32 P" input0 [31:0] $end
$var wire 32 Q" input1 [31:0] $end
$var wire 32 R" input10 [31:0] $end
$var wire 32 S" input11 [31:0] $end
$var wire 32 T" input12 [31:0] $end
$var wire 32 U" input13 [31:0] $end
$var wire 32 V" input14 [31:0] $end
$var wire 32 W" input15 [31:0] $end
$var wire 32 X" input16 [31:0] $end
$var wire 32 Y" input17 [31:0] $end
$var wire 32 Z" input18 [31:0] $end
$var wire 32 [" input19 [31:0] $end
$var wire 32 \" input2 [31:0] $end
$var wire 32 ]" input20 [31:0] $end
$var wire 32 ^" input21 [31:0] $end
$var wire 32 _" input22 [31:0] $end
$var wire 32 `" input23 [31:0] $end
$var wire 32 a" input24 [31:0] $end
$var wire 32 b" input25 [31:0] $end
$var wire 32 c" input26 [31:0] $end
$var wire 32 d" input27 [31:0] $end
$var wire 32 e" input28 [31:0] $end
$var wire 32 f" input29 [31:0] $end
$var wire 32 g" input3 [31:0] $end
$var wire 32 h" input30 [31:0] $end
$var wire 32 i" input31 [31:0] $end
$var wire 32 j" input4 [31:0] $end
$var wire 32 k" input5 [31:0] $end
$var wire 32 l" input6 [31:0] $end
$var wire 32 m" input7 [31:0] $end
$var wire 32 n" input8 [31:0] $end
$var wire 32 o" input9 [31:0] $end
$var wire 32 p" out [31:0] $end
$upscope $end
$scope begin registerGen[1] $end
$scope module register $end
$var wire 1 I clk $end
$var wire 32 q" d [31:0] $end
$var wire 1 r" wrenable $end
$var reg 32 s" q [31:0] $end
$upscope $end
$scope begin genblk2 $end
$upscope $end
$upscope $end
$scope begin registerGen[2] $end
$scope module register $end
$var wire 1 I clk $end
$var wire 32 t" d [31:0] $end
$var wire 1 u" wrenable $end
$var reg 32 v" q [31:0] $end
$upscope $end
$scope begin genblk2 $end
$upscope $end
$upscope $end
$scope begin registerGen[3] $end
$scope module register $end
$var wire 1 I clk $end
$var wire 32 w" d [31:0] $end
$var wire 1 x" wrenable $end
$var reg 32 y" q [31:0] $end
$upscope $end
$scope begin genblk2 $end
$upscope $end
$upscope $end
$scope begin registerGen[4] $end
$scope module register $end
$var wire 1 I clk $end
$var wire 32 z" d [31:0] $end
$var wire 1 {" wrenable $end
$var reg 32 |" q [31:0] $end
$upscope $end
$scope begin genblk2 $end
$upscope $end
$upscope $end
$scope begin registerGen[5] $end
$scope module register $end
$var wire 1 I clk $end
$var wire 32 }" d [31:0] $end
$var wire 1 ~" wrenable $end
$var reg 32 !# q [31:0] $end
$upscope $end
$scope begin genblk2 $end
$upscope $end
$upscope $end
$scope begin registerGen[6] $end
$scope module register $end
$var wire 1 I clk $end
$var wire 32 "# d [31:0] $end
$var wire 1 ## wrenable $end
$var reg 32 $# q [31:0] $end
$upscope $end
$scope begin genblk2 $end
$upscope $end
$upscope $end
$scope begin registerGen[7] $end
$scope module register $end
$var wire 1 I clk $end
$var wire 32 %# d [31:0] $end
$var wire 1 &# wrenable $end
$var reg 32 '# q [31:0] $end
$upscope $end
$scope begin genblk2 $end
$upscope $end
$upscope $end
$scope begin registerGen[8] $end
$scope module register $end
$var wire 1 I clk $end
$var wire 32 (# d [31:0] $end
$var wire 1 )# wrenable $end
$var reg 32 *# q [31:0] $end
$upscope $end
$scope begin genblk2 $end
$upscope $end
$upscope $end
$scope begin registerGen[9] $end
$scope module register $end
$var wire 1 I clk $end
$var wire 32 +# d [31:0] $end
$var wire 1 ,# wrenable $end
$var reg 32 -# q [31:0] $end
$upscope $end
$scope begin genblk2 $end
$upscope $end
$upscope $end
$scope begin registerGen[10] $end
$scope module register $end
$var wire 1 I clk $end
$var wire 32 .# d [31:0] $end
$var wire 1 /# wrenable $end
$var reg 32 0# q [31:0] $end
$upscope $end
$scope begin genblk2 $end
$upscope $end
$upscope $end
$scope begin registerGen[11] $end
$scope module register $end
$var wire 1 I clk $end
$var wire 32 1# d [31:0] $end
$var wire 1 2# wrenable $end
$var reg 32 3# q [31:0] $end
$upscope $end
$scope begin genblk2 $end
$upscope $end
$upscope $end
$scope begin registerGen[12] $end
$scope module register $end
$var wire 1 I clk $end
$var wire 32 4# d [31:0] $end
$var wire 1 5# wrenable $end
$var reg 32 6# q [31:0] $end
$upscope $end
$scope begin genblk2 $end
$upscope $end
$upscope $end
$scope begin registerGen[13] $end
$scope module register $end
$var wire 1 I clk $end
$var wire 32 7# d [31:0] $end
$var wire 1 8# wrenable $end
$var reg 32 9# q [31:0] $end
$upscope $end
$scope begin genblk2 $end
$upscope $end
$upscope $end
$scope begin registerGen[14] $end
$scope module register $end
$var wire 1 I clk $end
$var wire 32 :# d [31:0] $end
$var wire 1 ;# wrenable $end
$var reg 32 <# q [31:0] $end
$upscope $end
$scope begin genblk2 $end
$upscope $end
$upscope $end
$scope begin registerGen[15] $end
$scope module register $end
$var wire 1 I clk $end
$var wire 32 =# d [31:0] $end
$var wire 1 ># wrenable $end
$var reg 32 ?# q [31:0] $end
$upscope $end
$scope begin genblk2 $end
$upscope $end
$upscope $end
$scope begin registerGen[16] $end
$scope module register $end
$var wire 1 I clk $end
$var wire 32 @# d [31:0] $end
$var wire 1 A# wrenable $end
$var reg 32 B# q [31:0] $end
$upscope $end
$scope begin genblk2 $end
$upscope $end
$upscope $end
$scope begin registerGen[17] $end
$scope module register $end
$var wire 1 I clk $end
$var wire 32 C# d [31:0] $end
$var wire 1 D# wrenable $end
$var reg 32 E# q [31:0] $end
$upscope $end
$scope begin genblk2 $end
$upscope $end
$upscope $end
$scope begin registerGen[18] $end
$scope module register $end
$var wire 1 I clk $end
$var wire 32 F# d [31:0] $end
$var wire 1 G# wrenable $end
$var reg 32 H# q [31:0] $end
$upscope $end
$scope begin genblk2 $end
$upscope $end
$upscope $end
$scope begin registerGen[19] $end
$scope module register $end
$var wire 1 I clk $end
$var wire 32 I# d [31:0] $end
$var wire 1 J# wrenable $end
$var reg 32 K# q [31:0] $end
$upscope $end
$scope begin genblk2 $end
$upscope $end
$upscope $end
$scope begin registerGen[20] $end
$scope module register $end
$var wire 1 I clk $end
$var wire 32 L# d [31:0] $end
$var wire 1 M# wrenable $end
$var reg 32 N# q [31:0] $end
$upscope $end
$scope begin genblk2 $end
$upscope $end
$upscope $end
$scope begin registerGen[21] $end
$scope module register $end
$var wire 1 I clk $end
$var wire 32 O# d [31:0] $end
$var wire 1 P# wrenable $end
$var reg 32 Q# q [31:0] $end
$upscope $end
$scope begin genblk2 $end
$upscope $end
$upscope $end
$scope begin registerGen[22] $end
$scope module register $end
$var wire 1 I clk $end
$var wire 32 R# d [31:0] $end
$var wire 1 S# wrenable $end
$var reg 32 T# q [31:0] $end
$upscope $end
$scope begin genblk2 $end
$upscope $end
$upscope $end
$scope begin registerGen[23] $end
$scope module register $end
$var wire 1 I clk $end
$var wire 32 U# d [31:0] $end
$var wire 1 V# wrenable $end
$var reg 32 W# q [31:0] $end
$upscope $end
$scope begin genblk2 $end
$upscope $end
$upscope $end
$scope begin registerGen[24] $end
$scope module register $end
$var wire 1 I clk $end
$var wire 32 X# d [31:0] $end
$var wire 1 Y# wrenable $end
$var reg 32 Z# q [31:0] $end
$upscope $end
$scope begin genblk2 $end
$upscope $end
$upscope $end
$scope begin registerGen[25] $end
$scope module register $end
$var wire 1 I clk $end
$var wire 32 [# d [31:0] $end
$var wire 1 \# wrenable $end
$var reg 32 ]# q [31:0] $end
$upscope $end
$scope begin genblk2 $end
$upscope $end
$upscope $end
$scope begin registerGen[26] $end
$scope module register $end
$var wire 1 I clk $end
$var wire 32 ^# d [31:0] $end
$var wire 1 _# wrenable $end
$var reg 32 `# q [31:0] $end
$upscope $end
$scope begin genblk2 $end
$upscope $end
$upscope $end
$scope begin registerGen[27] $end
$scope module register $end
$var wire 1 I clk $end
$var wire 32 a# d [31:0] $end
$var wire 1 b# wrenable $end
$var reg 32 c# q [31:0] $end
$upscope $end
$scope begin genblk2 $end
$upscope $end
$upscope $end
$scope begin registerGen[28] $end
$scope module register $end
$var wire 1 I clk $end
$var wire 32 d# d [31:0] $end
$var wire 1 e# wrenable $end
$var reg 32 f# q [31:0] $end
$upscope $end
$scope begin genblk2 $end
$upscope $end
$upscope $end
$scope begin registerGen[29] $end
$scope module register $end
$var wire 1 I clk $end
$var wire 32 g# d [31:0] $end
$var wire 1 h# wrenable $end
$var reg 32 i# q [31:0] $end
$upscope $end
$scope begin genblk3 $end
$upscope $end
$upscope $end
$scope begin registerGen[30] $end
$scope module register $end
$var wire 1 I clk $end
$var wire 32 j# d [31:0] $end
$var wire 1 k# wrenable $end
$var reg 32 l# q [31:0] $end
$upscope $end
$scope begin genblk2 $end
$upscope $end
$upscope $end
$scope begin registerGen[31] $end
$scope module register $end
$var wire 1 I clk $end
$var wire 32 m# d [31:0] $end
$var wire 1 n# wrenable $end
$var reg 32 o# q [31:0] $end
$upscope $end
$scope begin genblk2 $end
$upscope $end
$upscope $end
$upscope $end
$scope module ALU $end
$var wire 32 p# a [31:0] $end
$var wire 32 q# b [31:0] $end
$var wire 1 I clk $end
$var wire 6 r# op [5:0] $end
$var reg 32 s# alu_res [31:0] $end
$var reg 1 t# zeroflag $end
$upscope $end
$scope module MemMux $end
$var wire 1 ; address $end
$var wire 32 u# in0 [31:0] $end
$var wire 32 v# in1 [31:0] $end
$var wire 32 w# out [31:0] $end
$upscope $end
$scope module RegMux $end
$var wire 1 B address $end
$var wire 32 x# in0 [31:0] $end
$var wire 32 y# in1 [31:0] $end
$var wire 32 z# out [31:0] $end
$upscope $end
$scope module DstMux $end
$var wire 2 {# address [1:0] $end
$var wire 5 |# in0 [4:0] $end
$var wire 5 }# in1 [4:0] $end
$var wire 5 ~# in2 [4:0] $end
$var wire 5 !$ out [4:0] $end
$upscope $end
$scope module AluMuxA $end
$var wire 1 $ address $end
$var wire 32 "$ in0 [31:0] $end
$var wire 32 #$ in1 [31:0] $end
$var wire 32 $$ out [31:0] $end
$upscope $end
$scope module AluMuxB $end
$var wire 2 %$ address [1:0] $end
$var wire 32 &$ in0 [31:0] $end
$var wire 32 '$ in1 [31:0] $end
$var wire 32 ($ in2 [31:0] $end
$var wire 32 )$ in3 [31:0] $end
$var wire 32 *$ out [31:0] $end
$upscope $end
$scope module PCMux $end
$var wire 2 +$ address [1:0] $end
$var wire 32 ,$ in0 [31:0] $end
$var wire 32 -$ in1 [31:0] $end
$var wire 32 .$ in2 [31:0] $end
$var wire 32 /$ out [31:0] $end
$upscope $end
$upscope $end
$scope begin registerGen $end
$upscope $end
$upscope $end
$enddefinitions $end
#0
$dumpvars
bx /$
bx .$
bx -$
b0xxxxxxxxxxxxxxxxxxxxxxxxxx00 ,$
bx +$
bx *$
bx00 )$
bx ($
b0 '$
b1 &$
bx %$
bx $$
b0 #$
b0 "$
bx !$
b11111 ~#
bx }#
bx |#
bx {#
bx z#
b0 y#
bx x#
b0 w#
b0 v#
bx u#
xt#
bx s#
bx r#
bx q#
bx p#
b0 o#
xn#
bx m#
b0 l#
xk#
bx j#
b111111111111111 i#
xh#
bx g#
b0 f#
xe#
bx d#
b0 c#
xb#
bx a#
b0 `#
x_#
bx ^#
b0 ]#
x\#
bx [#
b0 Z#
xY#
bx X#
b0 W#
xV#
bx U#
b0 T#
xS#
bx R#
b0 Q#
xP#
bx O#
b0 N#
xM#
bx L#
b0 K#
xJ#
bx I#
b0 H#
xG#
bx F#
b0 E#
xD#
bx C#
b0 B#
xA#
bx @#
b0 ?#
x>#
bx =#
b0 <#
x;#
bx :#
b0 9#
x8#
bx 7#
b0 6#
x5#
bx 4#
b0 3#
x2#
bx 1#
b0 0#
x/#
bx .#
b0 -#
x,#
bx +#
b0 *#
x)#
bx (#
b0 '#
x&#
bx %#
b0 $#
x##
bx "#
b0 !#
x~"
bx }"
b0 |"
x{"
bx z"
b0 y"
xx"
bx w"
b0 v"
xu"
bx t"
b0 s"
xr"
bx q"
bx p"
b0 o"
b0 n"
b0 m"
b0 l"
b0 k"
b0 j"
b0 i"
b0 h"
b0 g"
b111111111111111 f"
b0 e"
b0 d"
b0 c"
b0 b"
b0 a"
b0 `"
b0 _"
b0 ^"
b0 ]"
b0 \"
b0 ["
b0 Z"
b0 Y"
b0 X"
b0 W"
b0 V"
b0 U"
b0 T"
b0 S"
b0 R"
b0 Q"
b0 P"
bx O"
bx N"
b0 M"
b0 L"
b0 K"
b0 J"
b0 I"
b0 H"
b0 G"
b0 F"
b0 E"
b111111111111111 D"
b0 C"
b0 B"
b0 A"
b0 @"
b0 ?"
b0 >"
b0 ="
b0 <"
b0 ;"
b0 :"
b0 9"
b0 8"
b0 7"
b0 6"
b0 5"
b0 4"
b0 3"
b0 2"
b0 1"
b0 0"
b0 /"
b0 ."
bx -"
x,"
b0 +"
bx *"
bx )"
bx ("
bx '"
bx &"
bx %"
bx $"
bx #"
bx ""
bx !"
bx00 ~
bx }
bx |
bx {
bx z
b0xxxxxxxxxxxxxxxxxxxxxxxxxx00 y
b0 x
bx w
bx v
bx u
bx t
bx s
bx r
bx q
b111000000010010000000011000110 p
b111000000010010000000011000110 o
b0 n
b0 m
bx l
1k
bx j
b0 i
1h
bx g
b0 f
1e
bx d
b0 c
1b
b111000000010010000000011000110 a
b0 `
bx _
b0 ^
bx ]
bx \
bx [
xZ
xY
xX
bx W
xV
1U
1T
bx S
xR
xQ
bx P
xO
bx N
b0 M
bx L
bx K
xJ
0I
bx00 H
bx G
bx F
bx E
bx D
xC
xB
b0 A
x@
bx ?
bx >
b0 =
x<
1;
b0 :
19
bx 8
bx 7
bx 6
bx 5
bx 4
bx 3
bx 2
bx 1
bx 0
b111000000010010000000011000110 /
b0xxxxxxxxxxxxxxxxxxxxxxxxxx00 .
b0 -
x,
bx +
bx *
bx )
bx (
x'
b0 &
bx %
x$
bx #
bx "
0!
$end
#5
0,"
0n#
0k#
0h#
0e#
0b#
0_#
0\#
0Y#
0V#
0S#
0P#
0M#
0J#
0G#
0D#
0A#
0>#
0;#
08#
05#
02#
0/#
0,#
0)#
0&#
0##
0~"
0{"
0x"
0u"
0r"
xt#
b1100011000 H
b1100011000 ~
b1100011000 )$
b0 [
b0 ]
b0 W
b1001000000001100011000 >
b1001000000001100011000 _
b1001000000001100011000 /$
b0 ?
b0 +$
b0 P
b1 )
b1 q#
b1 *$
b0 %
b0 %$
b0 S
b0 %"
b0 )"
b1001 1
b1001 '"
b1001 ("
b1001 !$
b0 0
b0 {#
0Y
0B
0Z
0C
0R
0,
0Q
0'
b0 N
b0 #
b0 r#
0O
0$
1T
19
0V
0<
1U
b111000000010010000000011000110 /
b111000000010010000000011000110 a
b111000000010010000000011000110 o
b111000000010010000000011000110 p
b0 =
b0 m
b0 w#
1;
0X
0@
b111000000010010000000011000110 c
b111000000010010000000011000110 :
b111000000010010000000011000110 y#
bx f
bx &
bx "$
bx i
bx -
bx n
bx '$
b10010000000011000110 q
b1001000000001100011000 .
b1001000000001100011000 y
b1001000000001100011000 ,$
b10010000000011000110 2
b10010000000011000110 z
b11000110 v
b11000110 G
b11000110 |
b11000110 }
b11000110 ($
b11000110 5
b11000110 {
b1110 w
b1110 4
b1110 L
b1110 \
b0 s
b0 D
b0 d
b0 !"
b0 N"
b0 7
b0 #"
b0 -"
b1001 t
b0 E
b0 g
b0 ""
b0 p"
b1001 8
b1001 $"
b1001 O"
b1001 |#
b0 r
b0 6
b0 }#
b110 u
b110 3
b110 K
1!
1I
#10
b1 ^
b1 M
0!
0I
#15
b1 s#
b1 +
b1 j
b1 -$
0t#
0J
b0 i
b0 -
b0 n
b0 '$
b0 f
b0 &
b0 "$
b1 [
b1 ]
b100000 N
b100000 #
b100000 r#
b1 W
b1 >
b1 _
b1 /$
b1 ?
b1 +$
1O
b0 (
b0 p#
b0 $$
1$
1X
1@
1T
19
1U
b111000000010010000000011000110 /
b111000000010010000000011000110 a
b111000000010010000000011000110 o
b111000000010010000000011000110 p
b0 =
b0 m
b0 w#
1;
1!
1I
#20
b1 l
b1 F
b1 &"
b1 *"
b1 q"
b1 t"
b1 w"
b1 z"
b1 }"
b1 "#
b1 %#
b1 (#
b1 +#
b1 .#
b1 1#
b1 4#
b1 7#
b1 :#
b1 =#
b1 @#
b1 C#
b1 F#
b1 I#
b1 L#
b1 O#
b1 R#
b1 U#
b1 X#
b1 [#
b1 ^#
b1 a#
b1 d#
b1 g#
b1 j#
b1 m#
b1 z#
b1 *
b1 u#
b1 x#
b1 .$
b100 ^
b100 M
0!
0I
#25
0t#
b100 [
b100 ]
1R
1,
1Q
1'
b0 W
b1001000000001100011000 >
b1001000000001100011000 _
b1001000000001100011000 /$
b0 ?
b0 +$
b0 N
b0 #
b0 r#
0O
0$
0T
09
0U
0;
0X
0@
b1 `
b111000000111110000001110001100 /
b111000000111110000001110001100 a
b111000000111110000001110001100 o
b111000000111110000001110001100 p
b1 =
b1 m
b1 w#
b0 (
b0 p#
b0 $$
b1 A
b1 x
b1 v#
b1 #$
1!
1I
#30
b1011 ^
b1011 M
0!
0I
#35
b11000110 s#
b11000110 +
b11000110 j
b11000110 -$
0t#
b111000000111110000001110001100 c
b111000000111110000001110001100 :
b111000000111110000001110001100 y#
b1011 [
b1011 ]
b10 P
b11000110 )
b11000110 q#
b11000110 *$
b10 %
b10 %$
b1110 N
b1110 #
b1110 r#
0R
0,
0Q
0'
1!
1I
#40
b11000110 l
bx /
bx a
bx o
bx p
b11000110 =
b11000110 m
b11000110 w#
b11000110 F
b11000110 &"
b11000110 *"
b11000110 q"
b11000110 t"
b11000110 w"
b11000110 z"
b11000110 }"
b11000110 "#
b11000110 %#
b11000110 (#
b11000110 +#
b11000110 .#
b11000110 1#
b11000110 4#
b11000110 7#
b11000110 :#
b11000110 =#
b11000110 @#
b11000110 C#
b11000110 F#
b11000110 I#
b11000110 L#
b11000110 O#
b11000110 R#
b11000110 U#
b11000110 X#
b11000110 [#
b11000110 ^#
b11000110 a#
b11000110 d#
b11000110 g#
b11000110 j#
b11000110 m#
b11000110 z#
b11000110 *
b11000110 u#
b11000110 x#
b11000110 .$
b0 ^
b0 M
0!
0I
#45
1,#
0t#
bx [
bx ]
1Z
b1000000000 %"
b1000000000 )"
1C
b0 P
b1 )
b1 q#
b1 *$
b0 %
b0 %$
b0 N
b0 #
b0 r#
bx c
bx :
bx y#
1!
1I
#50
0!
0I
#55
0,#
b0 [
b0 ]
1T
19
1U
b111000000111110000001110001100 /
b111000000111110000001110001100 a
b111000000111110000001110001100 o
b111000000111110000001110001100 p
b1 =
b1 m
b1 w#
1;
0Z
b0 %"
b0 )"
0C
b11000110 -#
b11000110 E
b11000110 g
b11000110 ""
b11000110 p"
b11000110 M"
b11000110 o"
1!
1I
#60
b1 ^
b1 M
0!
0I
#65
b10 s#
b10 +
b10 j
b10 -$
1t#
1J
b111000110000 H
b111000110000 ~
b111000110000 )$
b1 [
b1 ]
b100000 N
b100000 #
b100000 r#
b1 W
b1 ?
b1 +$
1O
b1 (
b1 p#
b1 $$
1$
1X
1@
1T
19
1U
b111000000111110000001110001100 /
b111000000111110000001110001100 a
b111000000111110000001110001100 o
b111000000111110000001110001100 p
b1 =
b1 m
b1 w#
1;
b111000000111110000001110001100 c
b111000000111110000001110001100 :
b111000000111110000001110001100 y#
b11000110 i
b11000110 -
b11000110 n
b11000110 '$
b111110000001110001100 q
b10 >
b10 _
b10 /$
b11111000000111000110000 .
b11111000000111000110000 y
b11111000000111000110000 ,$
b111110000001110001100 2
b111110000001110001100 z
b1110001100 v
b1110001100 G
b1110001100 |
b1110001100 }
b1110001100 ($
b1110001100 5
b1110001100 {
b11111 t
b0 E
b0 g
b0 ""
b0 p"
b11111 1
b11111 '"
b11111 ("
b11111 !$
b11111 8
b11111 $"
b11111 O"
b11111 |#
b1100 u
b1100 3
b1100 K
1!
1I
#70
b10 l
b10 F
b10 &"
b10 *"
b10 q"
b10 t"
b10 w"
b10 z"
b10 }"
b10 "#
b10 %#
b10 (#
b10 +#
b10 .#
b10 1#
b10 4#
b10 7#
b10 :#
b10 =#
b10 @#
b10 C#
b10 F#
b10 I#
b10 L#
b10 O#
b10 R#
b10 U#
b10 X#
b10 [#
b10 ^#
b10 a#
b10 d#
b10 g#
b10 j#
b10 m#
b10 z#
b10 *
b10 u#
b10 x#
b10 .$
b100 ^
b100 M
0!
0I
#75
0t#
0J
b0 i
b0 -
b0 n
b0 '$
b10 `
b10 A
b10 x
b10 v#
b10 #$
b100 [
b100 ]
1R
1,
1Q
1'
b0 W
b11111000000111000110000 >
b11111000000111000110000 _
b11111000000111000110000 /$
b0 ?
b0 +$
b0 N
b0 #
b0 r#
0O
b0 (
b0 p#
b0 $$
0$
0T
09
0U
b111000000000100000000000001000 /
b111000000000100000000000001000 a
b111000000000100000000000001000 o
b111000000000100000000000001000 p
b10 =
b10 m
b10 w#
0;
0X
0@
1!
1I
#80
b1011 ^
b1011 M
0!
0I
#85
b1110001100 s#
b1110001100 +
b1110001100 j
b1110001100 -$
0t#
b1011 [
b1011 ]
b10 P
b1110001100 )
b1110001100 q#
b1110001100 *$
b10 %
b10 %$
b1110 N
b1110 #
b1110 r#
0R
0,
0Q
0'
b111000000000100000000000001000 c
b111000000000100000000000001000 :
b111000000000100000000000001000 y#
1!
1I
#90
b1110001100 l
bx /
bx a
bx o
bx p
b1110001100 =
b1110001100 m
b1110001100 w#
b1110001100 F
b1110001100 &"
b1110001100 *"
b1110001100 q"
b1110001100 t"
b1110001100 w"
b1110001100 z"
b1110001100 }"
b1110001100 "#
b1110001100 %#
b1110001100 (#
b1110001100 +#
b1110001100 .#
b1110001100 1#
b1110001100 4#
b1110001100 7#
b1110001100 :#
b1110001100 =#
b1110001100 @#
b1110001100 C#
b1110001100 F#
b1110001100 I#
b1110001100 L#
b1110001100 O#
b1110001100 R#
b1110001100 U#
b1110001100 X#
b1110001100 [#
b1110001100 ^#
b1110001100 a#
b1110001100 d#
b1110001100 g#
b1110001100 j#
b1110001100 m#
b1110001100 z#
b1110001100 *
b1110001100 u#
b1110001100 x#
b1110001100 .$
b0 ^
b0 M
0!
0I
#95
1n#
0t#
bx c
bx :
bx y#
bx [
bx ]
1Z
b10000000000000000000000000000000 %"
b10000000000000000000000000000000 )"
1C
b0 P
b1 )
b1 q#
b1 *$
b0 %
b0 %$
b0 N
b0 #
b0 r#
1!
1I
#100
0!
0I
#105
0n#
b0 [
b0 ]
1T
19
1U
b111000000000100000000000001000 /
b111000000000100000000000001000 a
b111000000000100000000000001000 o
b111000000000100000000000001000 p
b10 =
b10 m
b10 w#
1;
0Z
b0 %"
b0 )"
0C
b1110001100 i
b1110001100 -
b1110001100 n
b1110001100 '$
b1110001100 o#
b1110001100 E
b1110001100 g
b1110001100 ""
b1110001100 p"
b1110001100 G"
b1110001100 i"
1!
1I
#110
b1 ^
b1 M
0!
0I
