Lab3/verilog/cpu.vcd
$date
	Mon Nov 30 10:56:32 2015
$end
$version
	Icarus Verilog
$end
$timescale
	1s
$end
$scope module testCPU $end
$var reg 1 ! clk $end
$var integer 32 " index [31:0] $end
$scope module ourCpu $end
$var wire 6 # ALUOP [5:0] $end
$var wire 1 $ ALU_SRCA $end
$var wire 2 % ALU_SRCB [1:0] $end
$var wire 32 & A_AluMuxA [31:0] $end
$var wire 1 ' A_WE $end
$var wire 32 ( AluMuxA_Alu [31:0] $end
$var wire 32 ) AluMuxB_Alu [31:0] $end
$var wire 32 * AluRes_out [31:0] $end
$var wire 32 + Alu_out [31:0] $end
$var wire 1 , B_WE $end
$var wire 32 - B_out [31:0] $end
$var wire 1 . CONCAT_WE $end
$var wire 32 / Concat_PCMux [31:0] $end
$var wire 32 0 Concat_Res [31:0] $end
$var wire 32 1 DM_out [31:0] $end
$var wire 2 2 DST [1:0] $end
$var wire 5 3 DstMux_RegFile [4:0] $end
$var wire 26 4 IR_Concat [25:0] $end
$var wire 6 5 IR_FSM_funct [5:0] $end
$var wire 6 6 IR_FSM_opcode [5:0] $end
$var wire 16 7 IR_Imm16 [15:0] $end
$var wire 5 8 IR_Rd [4:0] $end
$var wire 5 9 IR_Rs [4:0] $end
$var wire 5 : IR_Rt [4:0] $end
$var wire 1 ; IR_WE $end
$var wire 32 < MDR_RegMux [31:0] $end
$var wire 1 = MEMIN $end
$var wire 1 > MEM_WE $end
$var wire 32 ? MemMux_DM [31:0] $end
$var wire 32 @ PCMux_PC [31:0] $end
$var wire 2 A PC_SRC [1:0] $end
$var wire 1 B PC_WE $end
$var wire 32 C PC_out [31:0] $end
$var wire 1 D REGIN $end
$var wire 1 E REG_WE $end
$var wire 32 F RegFile_A [31:0] $end
$var wire 32 G RegFile_B [31:0] $end
$var wire 32 H RegMux_RegFile [31:0] $end
$var wire 32 I SEImm_out [31:0] $end
$var wire 32 J SE_Res [31:0] $end
$var wire 1 K SE_WE $end
$var wire 1 L clk $end
$var wire 1 M zeroflag $end
$scope module FSM $end
$var wire 6 N IR_ALU_OP [5:0] $end
$var wire 1 L clk $end
$var wire 6 O instr [5:0] $end
$var wire 4 P next_state [3:0] $end
$var wire 1 M zeroflag $end
$var reg 6 Q ALU_OP [5:0] $end
$var reg 1 R ALU_SRCA $end
$var reg 2 S ALU_SRCB [1:0] $end
$var reg 1 T A_WE $end
$var reg 1 U B_WE $end
$var reg 1 V CONCAT_WE $end
$var reg 2 W DST [1:0] $end
$var reg 1 X IR_WE $end
$var reg 1 Y MEM_IN $end
$var reg 1 Z MEM_WE $end
$var reg 2 [ PC_SRC [1:0] $end
$var reg 1 \ PC_WE $end
$var reg 1 ] REG_IN $end
$var reg 1 ^ REG_WE $end
$var reg 1 _ SE_WE $end
$var reg 4 ` state [3:0] $end
$scope module LUT $end
$var wire 6 a alu [5:0] $end
$var wire 1 L clk $end
$var wire 6 b opcode [5:0] $end
$var wire 4 c state [3:0] $end
$var reg 4 d next_state [3:0] $end
$upscope $end
$upscope $end
$scope module PC $end
$var wire 1 L clk $end
$var wire 32 e in [31:0] $end
$var wire 1 B wr_enable $end
$var reg 32 f q [31:0] $end
$upscope $end
$scope module MDR $end
$var wire 1 L clk $end
$var wire 32 g in [31:0] $end
$var wire 1 h wr_enable $end
$var reg 32 i q [31:0] $end
$upscope $end
$scope module A $end
$var wire 1 L clk $end
$var wire 32 j in [31:0] $end
$var wire 1 k wr_enable $end
$var reg 32 l q [31:0] $end
$upscope $end
$scope module B $end
$var wire 1 L clk $end
$var wire 32 m in [31:0] $end
$var wire 1 n wr_enable $end
$var reg 32 o q [31:0] $end
$upscope $end
$scope module ConcatReg $end
$var wire 1 L clk $end
$var wire 32 p in [31:0] $end
$var wire 1 . wr_enable $end
$var reg 32 q q [31:0] $end
$upscope $end
$scope module SEReg $end
$var wire 1 L clk $end
$var wire 32 r in [31:0] $end
$var wire 1 K wr_enable $end
$var reg 32 s q [31:0] $end
$upscope $end
$scope module Alu_Res $end
$var wire 1 L clk $end
$var wire 32 t in [31:0] $end
$var wire 1 u wr_enable $end
$var reg 32 v q [31:0] $end
$upscope $end
$scope module DM $end
$var wire 32 w address [31:0] $end
$var wire 1 L clk $end
$var wire 32 x din [31:0] $end
$var wire 32 y dout [31:0] $end
$var wire 1 > wr_enable $end
$upscope $end
$scope module IR $end
$var wire 1 ; IR_WE $end
$var wire 1 L clk $end
$var wire 32 z instr [31:0] $end
$var reg 26 { J_addr [25:0] $end
$var reg 5 | Rd [4:0] $end
$var reg 5 } Rs [4:0] $end
$var reg 5 ~ Rt [4:0] $end
$var reg 6 !" funct [5:0] $end
$var reg 16 "" imm [15:0] $end
$var reg 6 #" opcode [5:0] $end
$upscope $end
$scope module Concat $end
$var wire 32 $" PC [31:0] $end
$var wire 32 %" concat [31:0] $end
$var wire 26 &" dout [25:0] $end
$upscope $end
$scope module SignExtend $end
$var wire 16 '" imm [15:0] $end
$var wire 32 (" se [31:0] $end
$upscope $end
$scope module RegisterFile $end
$var wire 1 L Clk $end
$var wire 32 )" ReadData1 [31:0] $end
$var wire 32 *" ReadData2 [31:0] $end
$var wire 5 +" ReadRegister1 [4:0] $end
$var wire 5 ," ReadRegister2 [4:0] $end
$var wire 1 E RegWrite $end
$var wire 32 -" RegisterToWrite [31:0] $end
$var wire 32 ." WriteData [31:0] $end
$var wire 5 /" WriteRegister [4:0] $end
$scope module decoder1 $end
$var wire 5 0" address [4:0] $end
$var wire 1 E enable $end
$var wire 32 1" out [31:0] $end
$upscope $end
$scope module register0 $end
$var wire 1 L clk $end
$var wire 32 2" d [31:0] $end
$var wire 32 3" q [31:0] $end
$var wire 1 4" wrenable $end
$upscope $end
$scope module mux1 $end
$var wire 5 5" address [4:0] $end
$var wire 32 6" input0 [31:0] $end
$var wire 32 7" input1 [31:0] $end
$var wire 32 8" input10 [31:0] $end
$var wire 32 9" input11 [31:0] $end
$var wire 32 :" input12 [31:0] $end
$var wire 32 ;" input13 [31:0] $end
$var wire 32 <" input14 [31:0] $end
$var wire 32 =" input15 [31:0] $end
$var wire 32 >" input16 [31:0] $end
$var wire 32 ?" input17 [31:0] $end
$var wire 32 @" input18 [31:0] $end
$var wire 32 A" input19 [31:0] $end
$var wire 32 B" input2 [31:0] $end
$var wire 32 C" input20 [31:0] $end
$var wire 32 D" input21 [31:0] $end
$var wire 32 E" input22 [31:0] $end
$var wire 32 F" input23 [31:0] $end
$var wire 32 G" input24 [31:0] $end
$var wire 32 H" input25 [31:0] $end
$var wire 32 I" input26 [31:0] $end
$var wire 32 J" input27 [31:0] $end
$var wire 32 K" input28 [31:0] $end
$var wire 32 L" input29 [31:0] $end
$var wire 32 M" input3 [31:0] $end
$var wire 32 N" input30 [31:0] $end
$var wire 32 O" input31 [31:0] $end
$var wire 32 P" input4 [31:0] $end
$var wire 32 Q" input5 [31:0] $end
$var wire 32 R" input6 [31:0] $end
$var wire 32 S" input7 [31:0] $end
$var wire 32 T" input8 [31:0] $end
$var wire 32 U" input9 [31:0] $end
$var wire 32 V" out [31:0] $end
$upscope $end
$scope module mux2 $end
$var wire 5 W" address [4:0] $end
$var wire 32 X" input0 [31:0] $end
$var wire 32 Y" input1 [31:0] $end
$var wire 32 Z" input10 [31:0] $end
$var wire 32 [" input11 [31:0] $end
$var wire 32 \" input12 [31:0] $end
$var wire 32 ]" input13 [31:0] $end
$var wire 32 ^" input14 [31:0] $end
$var wire 32 _" input15 [31:0] $end
$var wire 32 `" input16 [31:0] $end
$var wire 32 a" input17 [31:0] $end
$var wire 32 b" input18 [31:0] $end
$var wire 32 c" input19 [31:0] $end
$var wire 32 d" input2 [31:0] $end
$var wire 32 e" input20 [31:0] $end
$var wire 32 f" input21 [31:0] $end
$var wire 32 g" input22 [31:0] $end
$var wire 32 h" input23 [31:0] $end
$var wire 32 i" input24 [31:0] $end
$var wire 32 j" input25 [31:0] $end
$var wire 32 k" input26 [31:0] $end
$var wire 32 l" input27 [31:0] $end
$var wire 32 m" input28 [31:0] $end
$var wire 32 n" input29 [31:0] $end
$var wire 32 o" input3 [31:0] $end
$var wire 32 p" input30 [31:0] $end
$var wire 32 q" input31 [31:0] $end
$var wire 32 r" input4 [31:0] $end
$var wire 32 s" input5 [31:0] $end
$var wire 32 t" input6 [31:0] $end
$var wire 32 u" input7 [31:0] $end
$var wire 32 v" input8 [31:0] $end
$var wire 32 w" input9 [31:0] $end
$var wire 32 x" out [31:0] $end
$upscope $end
$scope begin registerGen[1] $end
$scope module register $end
$var wire 1 L clk $end
$var wire 32 y" d [31:0] $end
$var wire 1 z" wrenable $end
$var reg 32 {" q [31:0] $end
$upscope $end
$scope begin genblk2 $end
$upscope $end
$upscope $end
$scope begin registerGen[2] $end
$scope module register $end
$var wire 1 L clk $end
$var wire 32 |" d [31:0] $end
$var wire 1 }" wrenable $end
$var reg 32 ~" q [31:0] $end
$upscope $end
$scope begin genblk2 $end
$upscope $end
$upscope $end
$scope begin registerGen[3] $end
$scope module register $end
$var wire 1 L clk $end
$var wire 32 !# d [31:0] $end
$var wire 1 "# wrenable $end
$var reg 32 ## q [31:0] $end
$upscope $end
$scope begin genblk2 $end
$upscope $end
$upscope $end
$scope begin registerGen[4] $end
$scope module register $end
$var wire 1 L clk $end
$var wire 32 $# d [31:0] $end
$var wire 1 %# wrenable $end
$var reg 32 &# q [31:0] $end
$upscope $end
$scope begin genblk2 $end
$upscope $end
$upscope $end
$scope begin registerGen[5] $end
$scope module register $end
$var wire 1 L clk $end
$var wire 32 '# d [31:0] $end
$var wire 1 (# wrenable $end
$var reg 32 )# q [31:0] $end
$upscope $end
$scope begin genblk2 $end
$upscope $end
$upscope $end
$scope begin registerGen[6] $end
$scope module register $end
$var wire 1 L clk $end
$var wire 32 *# d [31:0] $end
$var wire 1 +# wrenable $end
$var reg 32 ,# q [31:0] $end
$upscope $end
$scope begin genblk2 $end
$upscope $end
$upscope $end
$scope begin registerGen[7] $end
$scope module register $end
$var wire 1 L clk $end
$var wire 32 -# d [31:0] $end
$var wire 1 .# wrenable $end
$var reg 32 /# q [31:0] $end
$upscope $end
$scope begin genblk2 $end
$upscope $end
$upscope $end
$scope begin registerGen[8] $end
$scope module register $end
$var wire 1 L clk $end
$var wire 32 0# d [31:0] $end
$var wire 1 1# wrenable $end
$var reg 32 2# q [31:0] $end
$upscope $end
$scope begin genblk2 $end
$upscope $end
$upscope $end
$scope begin registerGen[9] $end
$scope module register $end
$var wire 1 L clk $end
$var wire 32 3# d [31:0] $end
$var wire 1 4# wrenable $end
$var reg 32 5# q [31:0] $end
$upscope $end
$scope begin genblk2 $end
$upscope $end
$upscope $end
$scope begin registerGen[10] $end
$scope module register $end
$var wire 1 L clk $end
$var wire 32 6# d [31:0] $end
$var wire 1 7# wrenable $end
$var reg 32 8# q [31:0] $end
$upscope $end
$scope begin genblk2 $end
$upscope $end
$upscope $end
$scope begin registerGen[11] $end
$scope module register $end
$var wire 1 L clk $end
$var wire 32 9# d [31:0] $end
$var wire 1 :# wrenable $end
$var reg 32 ;# q [31:0] $end
$upscope $end
$scope begin genblk2 $end
$upscope $end
$upscope $end
$scope begin registerGen[12] $end
$scope module register $end
$var wire 1 L clk $end
$var wire 32 <# d [31:0] $end
$var wire 1 =# wrenable $end
$var reg 32 ># q [31:0] $end
$upscope $end
$scope begin genblk2 $end
$upscope $end
$upscope $end
$scope begin registerGen[13] $end
$scope module register $end
$var wire 1 L clk $end
$var wire 32 ?# d [31:0] $end
$var wire 1 @# wrenable $end
$var reg 32 A# q [31:0] $end
$upscope $end
$scope begin genblk2 $end
$upscope $end
$upscope $end
$scope begin registerGen[14] $end
$scope module register $end
$var wire 1 L clk $end
$var wire 32 B# d [31:0] $end
$var wire 1 C# wrenable $end
$var reg 32 D# q [31:0] $end
$upscope $end
$scope begin genblk2 $end
$upscope $end
$upscope $end
$scope begin registerGen[15] $end
$scope module register $end
$var wire 1 L clk $end
$var wire 32 E# d [31:0] $end
$var wire 1 F# wrenable $end
$var reg 32 G# q [31:0] $end
$upscope $end
$scope begin genblk2 $end
$upscope $end
$upscope $end
$scope begin registerGen[16] $end
$scope module register $end
$var wire 1 L clk $end
$var wire 32 H# d [31:0] $end
$var wire 1 I# wrenable $end
$var reg 32 J# q [31:0] $end
$upscope $end
$scope begin genblk2 $end
$upscope $end
$upscope $end
$scope begin registerGen[17] $end
$scope module register $end
$var wire 1 L clk $end
$var wire 32 K# d [31:0] $end
$var wire 1 L# wrenable $end
$var reg 32 M# q [31:0] $end
$upscope $end
$scope begin genblk2 $end
$upscope $end
$upscope $end
$scope begin registerGen[18] $end
$scope module register $end
$var wire 1 L clk $end
$var wire 32 N# d [31:0] $end
$var wire 1 O# wrenable $end
$var reg 32 P# q [31:0] $end
$upscope $end
$scope begin genblk2 $end
$upscope $end
$upscope $end
$scope begin registerGen[19] $end
$scope module register $end
$var wire 1 L clk $end
$var wire 32 Q# d [31:0] $end
$var wire 1 R# wrenable $end
$var reg 32 S# q [31:0] $end
$upscope $end
$scope begin genblk2 $end
$upscope $end
$upscope $end
$scope begin registerGen[20] $end
$scope module register $end
$var wire 1 L clk $end
$var wire 32 T# d [31:0] $end
$var wire 1 U# wrenable $end
$var reg 32 V# q [31:0] $end
$upscope $end
$scope begin genblk2 $end
$upscope $end
$upscope $end
$scope begin registerGen[21] $end
$scope module register $end
$var wire 1 L clk $end
$var wire 32 W# d [31:0] $end
$var wire 1 X# wrenable $end
$var reg 32 Y# q [31:0] $end
$upscope $end
$scope begin genblk2 $end
$upscope $end
$upscope $end
$scope begin registerGen[22] $end
$scope module register $end
$var wire 1 L clk $end
$var wire 32 Z# d [31:0] $end
$var wire 1 [# wrenable $end
$var reg 32 \# q [31:0] $end
$upscope $end
$scope begin genblk2 $end
$upscope $end
$upscope $end
$scope begin registerGen[23] $end
$scope module register $end
$var wire 1 L clk $end
$var wire 32 ]# d [31:0] $end
$var wire 1 ^# wrenable $end
$var reg 32 _# q [31:0] $end
$upscope $end
$scope begin genblk2 $end
$upscope $end
$upscope $end
$scope begin registerGen[24] $end
$scope module register $end
$var wire 1 L clk $end
$var wire 32 `# d [31:0] $end
$var wire 1 a# wrenable $end
$var reg 32 b# q [31:0] $end
$upscope $end
$scope begin genblk2 $end
$upscope $end
$upscope $end
$scope begin registerGen[25] $end
$scope module register $end
$var wire 1 L clk $end
$var wire 32 c# d [31:0] $end
$var wire 1 d# wrenable $end
$var reg 32 e# q [31:0] $end
$upscope $end
$scope begin genblk2 $end
$upscope $end
$upscope $end
$scope begin registerGen[26] $end
$scope module register $end
$var wire 1 L clk $end
$var wire 32 f# d [31:0] $end
$var wire 1 g# wrenable $end
$var reg 32 h# q [31:0] $end
$upscope $end
$scope begin genblk2 $end
$upscope $end
$upscope $end
$scope begin registerGen[27] $end
$scope module register $end
$var wire 1 L clk $end
$var wire 32 i# d [31:0] $end
$var wire 1 j# wrenable $end
$var reg 32 k# q [31:0] $end
$upscope $end
$scope begin genblk2 $end
$upscope $end
$upscope $end
$scope begin registerGen[28] $end
$scope module register $end
$var wire 1 L clk $end
$var wire 32 l# d [31:0] $end
$var wire 1 m# wrenable $end
$var reg 32 n# q [31:0] $end
$upscope $end
$scope begin genblk2 $end
$upscope $end
$upscope $end
$scope begin registerGen[29] $end
$scope module register $end
$var wire 1 L clk $end
$var wire 32 o# d [31:0] $end
$var wire 1 p# wrenable $end
$var reg 32 q# q [31:0] $end
$upscope $end
$scope begin genblk3 $end
$upscope $end
$upscope $end
$scope begin registerGen[30] $end
$scope module register $end
$var wire 1 L clk $end
$var wire 32 r# d [31:0] $end
$var wire 1 s# wrenable $end
$var reg 32 t# q [31:0] $end
$upscope $end
$scope begin genblk2 $end
$upscope $end
$upscope $end
$scope begin registerGen[31] $end
$scope module register $end
$var wire 1 L clk $end
$var wire 32 u# d [31:0] $end
$var wire 1 v# wrenable $end
$var reg 32 w# q [31:0] $end
$upscope $end
$scope begin genblk2 $end
$upscope $end
$upscope $end
$upscope $end
$scope module ALU $end
$var wire 32 x# a [31:0] $end
$var wire 32 y# b [31:0] $end
$var wire 1 L clk $end
$var wire 6 z# op [5:0] $end
$var reg 32 {# alu_res [31:0] $end
$var reg 1 |# zeroflag $end
$upscope $end
$scope module MemMux $end
$var wire 1 = address $end
$var wire 32 }# in0 [31:0] $end
$var wire 32 ~# in1 [31:0] $end
$var wire 32 !$ out [31:0] $end
$upscope $end
$scope module RegMux $end
$var wire 1 D address $end
$var wire 32 "$ in0 [31:0] $end
$var wire 32 #$ in1 [31:0] $end
$var wire 32 $$ out [31:0] $end
$upscope $end
$scope module DstMux $end
$var wire 2 %$ address [1:0] $end
$var wire 5 &$ in0 [4:0] $end
$var wire 5 '$ in1 [4:0] $end
$var wire 5 ($ in2 [4:0] $end
$var wire 5 )$ out [4:0] $end
$upscope $end
$scope module AluMuxA $end
$var wire 1 $ address $end
$var wire 32 *$ in0 [31:0] $end
$var wire 32 +$ in1 [31:0] $end
$var wire 32 ,$ out [31:0] $end
$upscope $end
$scope module AluMuxB $end
$var wire 2 -$ address [1:0] $end
$var wire 32 .$ in0 [31:0] $end
$var wire 32 /$ in1 [31:0] $end
$var wire 32 0$ in2 [31:0] $end
$var wire 32 1$ out [31:0] $end
$upscope $end
$scope module PCMux $end
$var wire 2 2$ address [1:0] $end
$var wire 32 3$ in0 [31:0] $end
$var wire 32 4$ in1 [31:0] $end
$var wire 32 5$ in2 [31:0] $end
$var wire 32 6$ out [31:0] $end
$upscope $end
$upscope $end
$scope begin registerGen $end
$upscope $end
$upscope $end
$enddefinitions $end
#0
$dumpvars
bx 6$
bx 5$
bx 4$
b0 3$
bx 2$
bx 1$
b0 0$
b0 /$
b1 .$
bx -$
bx ,$
b0 +$
b0 *$
bx )$
b11111 ($
bx '$
bx &$
bx %$
bx $$
b0 #$
bx "$
b0 !$
b0 ~#
bx }#
x|#
bx {#
bx z#
bx y#
bx x#
b0 w#
xv#
bx u#
b0 t#
xs#
bx r#
b111111111111111 q#
xp#
bx o#
b0 n#
xm#
bx l#
b0 k#
xj#
bx i#
b0 h#
xg#
bx f#
b0 e#
xd#
bx c#
b0 b#
xa#
bx `#
b0 _#
x^#
bx ]#
b0 \#
x[#
bx Z#
b0 Y#
xX#
bx W#
b0 V#
xU#
bx T#
b0 S#
xR#
bx Q#
b0 P#
xO#
bx N#
b0 M#
xL#
bx K#
b0 J#
xI#
bx H#
b0 G#
xF#
bx E#
b0 D#
xC#
bx B#
b0 A#
x@#
bx ?#
b0 >#
x=#
bx <#
b0 ;#
x:#
bx 9#
b0 8#
x7#
bx 6#
b0 5#
x4#
bx 3#
b0 2#
x1#
bx 0#
b0 /#
x.#
bx -#
b0 ,#
x+#
bx *#
b0 )#
x(#
bx '#
b0 &#
x%#
bx $#
b0 ##
x"#
bx !#
b0 ~"
x}"
bx |"
b0 {"
xz"
bx y"
bx x"
b0 w"
b0 v"
b0 u"
b0 t"
b0 s"
b0 r"
b0 q"
b0 p"
b0 o"
b111111111111111 n"
b0 m"
b0 l"
b0 k"
b0 j"
b0 i"
b0 h"
b0 g"
b0 f"
b0 e"
b0 d"
b0 c"
b0 b"
b0 a"
b0 `"
b0 _"
b0 ^"
b0 ]"
b0 \"
b0 ["
b0 Z"
b0 Y"
b0 X"
bx W"
bx V"
b0 U"
b0 T"
b0 S"
b0 R"
b0 Q"
b0 P"
b0 O"
b0 N"
b0 M"
b111111111111111 L"
b0 K"
b0 J"
b0 I"
b0 H"
b0 G"
b0 F"
b0 E"
b0 D"
b0 C"
b0 B"
b0 A"
b0 @"
b0 ?"
b0 >"
b0 ="
b0 <"
b0 ;"
b0 :"
b0 9"
b0 8"
b0 7"
b0 6"
bx 5"
x4"
b0 3"
bx 2"
bx 1"
bx 0"
bx /"
bx ."
bx -"
bx ,"
bx +"
bx *"
bx )"
bx ("
bx '"
bx &"
b0xxxxxxxxxxxxxxxxxxxxxxxxxx %"
b0 $"
bx #"
bx ""
bx !"
bx ~
bx }
bx |
bx {
b111000000010010000000011000110 z
b111000000010010000000011000110 y
b0 x
b0 w
bx v
1u
bx t
b0 s
bx r
b0 q
b0xxxxxxxxxxxxxxxxxxxxxxxxxx p
b0 o
1n
bx m
b0 l
1k
bx j
b0 i
1h
b111000000010010000000011000110 g
b0 f
bx e
b0 d
bx c
bx b
bx a
bx `
x_
x^
x]
x\
bx [
xZ
1Y
1X
bx W
xV
xU
xT
bx S
xR
bx Q
b0 P
bx O
bx N
xM
0L
xK
bx J
b0 I
bx H
bx G
bx F
xE
xD
b0 C
xB
bx A
bx @
b0 ?
x>
1=
b0 <
1;
bx :
bx 9
bx 8
bx 7
bx 6
bx 5
bx 4
bx 3
bx 2
b111000000010010000000011000110 1
b0xxxxxxxxxxxxxxxxxxxxxxxxxx 0
b0 /
x.
b0 -
x,
bx +
bx *
bx )
bx (
x'
b0 &
bx %
x$
bx #
bx "
0!
$end
#5
04"
0v#
0s#
0p#
0m#
0j#
0g#
0d#
0a#
0^#
0[#
0X#
0U#
0R#
0O#
0L#
0I#
0F#
0C#
0@#
0=#
0:#
07#
04#
01#
0.#
0+#
0(#
0%#
0"#
0}"
0z"
x|#
b0 `
b0 c
0_
0K
0V
0.
b0 [
b0 @
b0 e
b0 6$
b0 A
b0 2$
b0 S
b1 )
b1 y#
b1 1$
b0 %
b0 -$
b0 W
b0 -"
b0 1"
b1001 3
b1001 /"
b1001 0"
b1001 )$
b0 2
b0 %$
0]
0D
0^
0E
0U
0,
0T
0'
b0 Q
b0 #
b0 z#
0R
0$
1X
1;
0Z
0>
1Y
b111000000010010000000011000110 1
b111000000010010000000011000110 g
b111000000010010000000011000110 y
b111000000010010000000011000110 z
b0 ?
b0 w
b0 !$
1=
0\
0B
b111000000010010000000011000110 i
b111000000010010000000011000110 <
b111000000010010000000011000110 #$
bx l
bx &
bx *$
bx o
bx -
bx x
bx /$
b10010000000011000110 {
b10010000000011000110 0
b10010000000011000110 p
b10010000000011000110 %"
b10010000000011000110 4
b10010000000011000110 &"
b11000110 ""
b11000110 J
b11000110 r
b11000110 ("
b11000110 7
b11000110 '"
b1110 #"
b1110 6
b1110 O
b1110 b
b0 }
b0 F
b0 j
b0 )"
b0 V"
b0 9
b0 +"
b0 5"
b1001 ~
b0 G
b0 m
b0 *"
b0 x"
b1001 :
b1001 ,"
b1001 W"
b1001 &$
b0 |
b0 8
b0 '$
b110 !"
b110 5
b110 N
b110 a
1!
1L
#10
b1 d
b1 P
0!
0L
#15
b1 {#
b1 +
b1 t
b1 4$
0|#
0M
b0 o
b0 -
b0 x
b0 /$
b0 l
b0 &
b0 *$
1_
1K
b1 `
b1 c
b100000 Q
b100000 #
b100000 z#
b1 [
b1 @
b1 e
b1 6$
b1 A
b1 2$
1R
b0 (
b0 x#
b0 ,$
1$
1\
1B
1X
1;
1Y
b111000000010010000000011000110 1
b111000000010010000000011000110 g
b111000000010010000000011000110 y
b111000000010010000000011000110 z
b0 ?
b0 w
b0 !$
1=
1!
1L
#20
b11000110 s
b11000110 I
b11000110 0$
b1 v
b1 H
b1 ."
b1 2"
b1 y"
b1 |"
b1 !#
b1 $#
b1 '#
b1 *#
b1 -#
b1 0#
b1 3#
b1 6#
b1 9#
b1 <#
b1 ?#
b1 B#
b1 E#
b1 H#
b1 K#
b1 N#
b1 Q#
b1 T#
b1 W#
b1 Z#
b1 ]#
b1 `#
b1 c#
b1 f#
b1 i#
b1 l#
b1 o#
b1 r#
b1 u#
b1 $$
b1 *
b1 }#
b1 "$
b1 5$
b100 d
b100 P
0!
0L
#25
0|#
b100 `
b100 c
1U
1,
1T
1'
0_
0K
b0 [
b0 @
b0 e
b0 6$
b0 A
b0 2$
b0 Q
b0 #
b0 z#
0R
0$
0X
0;
0Y
0=
0\
0B
b1 f
b111000000000100000000000001000 1
b111000000000100000000000001000 g
b111000000000100000000000001000 y
b111000000000100000000000001000 z
b1 ?
b1 w
b1 !$
b0 (
b0 x#
b0 ,$
b1 C
b1 $"
b1 ~#
b1 +$
1!
1L
#30
b1011 d
b1011 P
0!
0L
#35
b11000110 {#
b11000110 +
b11000110 t
b11000110 4$
0|#
b111000000000100000000000001000 i
b111000000000100000000000001000 <
b111000000000100000000000001000 #$
b1011 `
b1011 c
b10 S
b11000110 )
b11000110 y#
b11000110 1$
b10 %
b10 -$
b1110 Q
b1110 #
b1110 z#
0U
0,
0T
0'
1!
1L
#40
b11000110 v
bx 1
bx g
bx y
bx z
b11000110 ?
b11000110 w
b11000110 !$
b11000110 H
b11000110 ."
b11000110 2"
b11000110 y"
b11000110 |"
b11000110 !#
b11000110 $#
b11000110 '#
b11000110 *#
b11000110 -#
b11000110 0#
b11000110 3#
b11000110 6#
b11000110 9#
b11000110 <#
b11000110 ?#
b11000110 B#
b11000110 E#
b11000110 H#
b11000110 K#
b11000110 N#
b11000110 Q#
b11000110 T#
b11000110 W#
b11000110 Z#
b11000110 ]#
b11000110 `#
b11000110 c#
b11000110 f#
b11000110 i#
b11000110 l#
b11000110 o#
b11000110 r#
b11000110 u#
b11000110 $$
b11000110 *
b11000110 }#
b11000110 "$
b11000110 5$
b0 d
b0 P
0!
0L
#45
14#
0|#
bx `
bx c
1^
b1000000000 -"
b1000000000 1"
1E
b0 S
b1 )
b1 y#
b1 1$
b0 %
b0 -$
b0 Q
b0 #
b0 z#
bx i
bx <
bx #$
1!
1L
#50
0!
0L
#55
04#
b0 `
b0 c
1X
1;
1Y
b111000000000100000000000001000 1
b111000000000100000000000001000 g
b111000000000100000000000001000 y
b111000000000100000000000001000 z
b1 ?
b1 w
b1 !$
1=
0^
b0 -"
b0 1"
0E
b11000110 5#
b11000110 G
b11000110 m
b11000110 *"
b11000110 x"
b11000110 U"
b11000110 w"
1!
1L
#60
b1 d
b1 P
0!
0L
#65
b10 {#
b10 +
b10 t
b10 4$
1|#
1M
1_
1K
b1 `
b1 c
b100000 Q
b100000 #
b100000 z#
b1 [
b10 @
b10 e
b10 6$
b1 A
b1 2$
1R
b1 (
b1 x#
b1 ,$
1$
1\
1B
1X
1;
1Y
b111000000000100000000000001000 1
b111000000000100000000000001000 g
b111000000000100000000000001000 y
b111000000000100000000000001000 z
b1 ?
b1 w
b1 !$
1=
b111000000000100000000000001000 i
b111000000000100000000000001000 <
b111000000000100000000000001000 #$
b11000110 o
b11000110 -
b11000110 x
b11000110 /$
b100000000000001000 {
b100000000000001000 0
b100000000000001000 p
b100000000000001000 %"
b100000000000001000 4
b100000000000001000 &"
b1000 ""
b1000 J
b1000 r
b1000 ("
b1000 7
b1000 '"
b10 ~
b0 G
b0 m
b0 *"
b0 x"
b10 3
b10 /"
b10 0"
b10 )$
b10 :
b10 ,"
b10 W"
b10 &$
b1000 !"
b1000 5
b1000 N
b1000 a
1!
1L
#70
b10 v
b10 H
b10 ."
b10 2"
b10 y"
b10 |"
b10 !#
b10 $#
b10 '#
b10 *#
b10 -#
b10 0#
b10 3#
b10 6#
b10 9#
b10 <#
b10 ?#
b10 B#
b10 E#
b10 H#
b10 K#
b10 N#
b10 Q#
b10 T#
b10 W#
b10 Z#
b10 ]#
b10 `#
b10 c#
b10 f#
b10 i#
b10 l#
b10 o#
b10 r#
b10 u#
b10 $$
b10 *
b10 }#
b10 "$
b10 5$
b1000 s
b1000 I
b1000 0$
b100 d
b100 P
0!
0L
#75
0|#
0M
b0 o
b0 -
b0 x
b0 /$
b10 f
b10 C
b10 $"
b10 ~#
b10 +$
b100 `
b100 c
1U
1,
1T
1'
0_
0K
b0 [
b0 @
b0 e
b0 6$
b0 A
b0 2$
b0 Q
b0 #
b0 z#
0R
b0 (
b0 x#
b0 ,$
0$
0X
0;
0Y
b10100000000000000000000000100 1
b10100000000000000000000000100 g
b10100000000000000000000000100 y
b10100000000000000000000000100 z
b10 ?
b10 w
b10 !$
0=
0\
0B
1!
1L
#80
b1011 d
b1011 P
0!
0L
#85
b1000 {#
b1000 +
b1000 t
b1000 4$
0|#
b1011 `
b1011 c
b10 S
b1000 )
b1000 y#
b1000 1$
b10 %
b10 -$
b1110 Q
b1110 #
b1110 z#
0U
0,
0T
0'
b10100000000000000000000000100 i
b10100000000000000000000000100 <
b10100000000000000000000000100 #$
1!
1L
#90
b1000 v
b1001000101000100000100010 1
b1001000101000100000100010 g
b1001000101000100000100010 y
b1001000101000100000100010 z
b1000 ?
b1000 w
b1000 !$
b1000 H
b1000 ."
b1000 2"
b1000 y"
b1000 |"
b1000 !#
b1000 $#
b1000 '#
b1000 *#
b1000 -#
b1000 0#
b1000 3#
b1000 6#
b1000 9#
b1000 <#
b1000 ?#
b1000 B#
b1000 E#
b1000 H#
b1000 K#
b1000 N#
b1000 Q#
b1000 T#
b1000 W#
b1000 Z#
b1000 ]#
b1000 `#
b1000 c#
b1000 f#
b1000 i#
b1000 l#
b1000 o#
b1000 r#
b1000 u#
b1000 $$
b1000 *
b1000 }#
b1000 "$
b1000 5$
b0 d
b0 P
0!
0L
#95
1}"
0|#
b1001000101000100000100010 i
b1001000101000100000100010 <
b1001000101000100000100010 #$
bx `
bx c
1^
b100 -"
b100 1"
1E
b0 S
b1 )
b1 y#
b1 1$
b0 %
b0 -$
b0 Q
b0 #
b0 z#
1!
1L
#100
0!
0L
#105
0}"
b0 `
b0 c
1X
1;
1Y
b10100000000000000000000000100 1
b10100000000000000000000000100 g
b10100000000000000000000000100 y
b10100000000000000000000000100 z
b10 ?
b10 w
b10 !$
1=
0^
b0 -"
b0 1"
0E
b1000 o
b1000 -
b1000 x
b1000 /$
b1000 ~"
b1000 G
b1000 m
b1000 *"
b1000 x"
b1000 B"
b1000 d"
1!
1L
#110
b1 d
b1 P
0!
0L
