Lab3/verilog/cpu.vcd
$date
	Sun Nov 29 16:00:21 2015
$end
$version
	Icarus Verilog
$end
$timescale
	1s
$end
$scope module testCPU $end
$var reg 1 ! clk $end
$var integer 32 " index [31:0] $end
$scope module ourCpu $end
$var wire 6 # ALUOP [5:0] $end
$var wire 1 $ ALU_SRCA $end
$var wire 2 % ALU_SRCB [1:0] $end
$var wire 32 & A_AluMuxA [31:0] $end
$var wire 1 ' A_WE $end
$var wire 32 ( AluMuxA_Alu [31:0] $end
$var wire 32 ) AluMuxB_Alu [31:0] $end
$var wire 32 * AluRes_out [31:0] $end
$var wire 32 + Alu_out [31:0] $end
$var wire 1 , B_WE $end
$var wire 32 - B_out [31:0] $end
$var wire 1 . CONCAT_WE $end
$var wire 32 / Concat_PCMux [31:0] $end
$var wire 32 0 Concat_Res [31:0] $end
$var wire 32 1 DM_out [31:0] $end
$var wire 2 2 DST [1:0] $end
$var wire 5 3 DstMux_RegFile [4:0] $end
$var wire 26 4 IR_Concat [25:0] $end
$var wire 6 5 IR_FSM_funct [5:0] $end
$var wire 6 6 IR_FSM_opcode [5:0] $end
$var wire 16 7 IR_Imm16 [15:0] $end
$var wire 5 8 IR_Rd [4:0] $end
$var wire 5 9 IR_Rs [4:0] $end
$var wire 5 : IR_Rt [4:0] $end
$var wire 1 ; IR_WE $end
$var wire 32 < MDR_RegMux [31:0] $end
$var wire 1 = MEMIN $end
$var wire 1 > MEM_WE $end
$var wire 32 ? MemMux_DM [31:0] $end
$var wire 32 @ PCMux_PC [31:0] $end
$var wire 2 A PC_SRC [1:0] $end
$var wire 1 B PC_WE $end
$var wire 32 C PC_out [31:0] $end
$var wire 1 D REGIN $end
$var wire 1 E REG_WE $end
$var wire 32 F RegFile_A [31:0] $end
$var wire 32 G RegFile_B [31:0] $end
$var wire 32 H RegMux_RegFile [31:0] $end
$var wire 32 I SEImm_out [31:0] $end
$var wire 32 J SE_Res [31:0] $end
$var wire 1 K SE_WE $end
$var wire 1 L clk $end
$var wire 1 M zeroflag $end
$scope module FSM $end
$var wire 6 N IR_ALU_OP [5:0] $end
$var wire 1 L clk $end
$var wire 6 O instr [5:0] $end
$var wire 4 P next_state [3:0] $end
$var wire 1 M zeroflag $end
$var reg 6 Q ALU_OP [5:0] $end
$var reg 1 R ALU_SRCA $end
$var reg 2 S ALU_SRCB [1:0] $end
$var reg 1 T A_WE $end
$var reg 1 U B_WE $end
$var reg 1 V CONCAT_WE $end
$var reg 2 W DST [1:0] $end
$var reg 1 X IR_WE $end
$var reg 1 Y MEM_IN $end
$var reg 1 Z MEM_WE $end
$var reg 2 [ PC_SRC [1:0] $end
$var reg 1 \ PC_WE $end
$var reg 1 ] REG_IN $end
$var reg 1 ^ REG_WE $end
$var reg 1 _ SE_WE $end
$var reg 4 ` state [3:0] $end
$scope module LUT $end
$var wire 6 a alu [5:0] $end
$var wire 1 L clk $end
$var wire 6 b opcode [5:0] $end
$var wire 4 c state [3:0] $end
$var reg 4 d next_state [3:0] $end
$upscope $end
$upscope $end
$scope module PC $end
$var wire 1 L clk $end
$var wire 32 e in [31:0] $end
$var wire 1 B wr_enable $end
$var reg 32 f q [31:0] $end
$upscope $end
$scope module MDR $end
$var wire 1 L clk $end
$var wire 32 g in [31:0] $end
$var wire 1 h wr_enable $end
$var reg 32 i q [31:0] $end
$upscope $end
$scope module A $end
$var wire 1 L clk $end
$var wire 32 j in [31:0] $end
$var wire 1 k wr_enable $end
$var reg 32 l q [31:0] $end
$upscope $end
$scope module B $end
$var wire 1 L clk $end
$var wire 32 m in [31:0] $end
$var wire 1 n wr_enable $end
$var reg 32 o q [31:0] $end
$upscope $end
$scope module ConcatReg $end
$var wire 1 L clk $end
$var wire 32 p in [31:0] $end
$var wire 1 . wr_enable $end
$var reg 32 q q [31:0] $end
$upscope $end
$scope module SEReg $end
$var wire 1 L clk $end
$var wire 32 r in [31:0] $end
$var wire 1 K wr_enable $end
$var reg 32 s q [31:0] $end
$upscope $end
$scope module Alu_Res $end
$var wire 1 L clk $end
$var wire 32 t in [31:0] $end
$var wire 1 u wr_enable $end
$var reg 32 v q [31:0] $end
$upscope $end
$scope module DM $end
$var wire 32 w address [31:0] $end
$var wire 1 L clk $end
$var wire 32 x din [31:0] $end
$var wire 32 y dout [31:0] $end
$var wire 1 > wr_enable $end
$upscope $end
$scope module IR $end
$var wire 1 ; IR_WE $end
$var wire 1 L clk $end
$var wire 32 z instr [31:0] $end
$var reg 26 { J_addr [25:0] $end
$var reg 5 | Rd [4:0] $end
$var reg 5 } Rs [4:0] $end
$var reg 5 ~ Rt [4:0] $end
$var reg 6 !" funct [5:0] $end
$var reg 16 "" imm [15:0] $end
$var reg 6 #" opcode [5:0] $end
$upscope $end
$scope module Concat $end
$var wire 32 $" concat [31:0] $end
$var wire 26 %" dout [25:0] $end
$upscope $end
$scope module SignExtend $end
$var wire 16 &" imm [15:0] $end
$var wire 32 '" se [31:0] $end
$upscope $end
$scope module RegisterFile $end
$var wire 1 L Clk $end
$var wire 32 (" ReadData1 [31:0] $end
$var wire 32 )" ReadData2 [31:0] $end
$var wire 5 *" ReadRegister1 [4:0] $end
$var wire 5 +" ReadRegister2 [4:0] $end
$var wire 1 E RegWrite $end
$var wire 32 ," RegisterToWrite [31:0] $end
$var wire 32 -" WriteData [31:0] $end
$var wire 5 ." WriteRegister [4:0] $end
$scope module decoder1 $end
$var wire 5 /" address [4:0] $end
$var wire 1 E enable $end
$var wire 32 0" out [31:0] $end
$upscope $end
$scope module register0 $end
$var wire 1 L clk $end
$var wire 32 1" d [31:0] $end
$var wire 32 2" q [31:0] $end
$var wire 1 3" wrenable $end
$upscope $end
$scope module mux1 $end
$var wire 5 4" address [4:0] $end
$var wire 32 5" input0 [31:0] $end
$var wire 32 6" input1 [31:0] $end
$var wire 32 7" input10 [31:0] $end
$var wire 32 8" input11 [31:0] $end
$var wire 32 9" input12 [31:0] $end
$var wire 32 :" input13 [31:0] $end
$var wire 32 ;" input14 [31:0] $end
$var wire 32 <" input15 [31:0] $end
$var wire 32 =" input16 [31:0] $end
$var wire 32 >" input17 [31:0] $end
$var wire 32 ?" input18 [31:0] $end
$var wire 32 @" input19 [31:0] $end
$var wire 32 A" input2 [31:0] $end
$var wire 32 B" input20 [31:0] $end
$var wire 32 C" input21 [31:0] $end
$var wire 32 D" input22 [31:0] $end
$var wire 32 E" input23 [31:0] $end
$var wire 32 F" input24 [31:0] $end
$var wire 32 G" input25 [31:0] $end
$var wire 32 H" input26 [31:0] $end
$var wire 32 I" input27 [31:0] $end
$var wire 32 J" input28 [31:0] $end
$var wire 32 K" input29 [31:0] $end
$var wire 32 L" input3 [31:0] $end
$var wire 32 M" input30 [31:0] $end
$var wire 32 N" input31 [31:0] $end
$var wire 32 O" input4 [31:0] $end
$var wire 32 P" input5 [31:0] $end
$var wire 32 Q" input6 [31:0] $end
$var wire 32 R" input7 [31:0] $end
$var wire 32 S" input8 [31:0] $end
$var wire 32 T" input9 [31:0] $end
$var wire 32 U" out [31:0] $end
$upscope $end
$scope module mux2 $end
$var wire 5 V" address [4:0] $end
$var wire 32 W" input0 [31:0] $end
$var wire 32 X" input1 [31:0] $end
$var wire 32 Y" input10 [31:0] $end
$var wire 32 Z" input11 [31:0] $end
$var wire 32 [" input12 [31:0] $end
$var wire 32 \" input13 [31:0] $end
$var wire 32 ]" input14 [31:0] $end
$var wire 32 ^" input15 [31:0] $end
$var wire 32 _" input16 [31:0] $end
$var wire 32 `" input17 [31:0] $end
$var wire 32 a" input18 [31:0] $end
$var wire 32 b" input19 [31:0] $end
$var wire 32 c" input2 [31:0] $end
$var wire 32 d" input20 [31:0] $end
$var wire 32 e" input21 [31:0] $end
$var wire 32 f" input22 [31:0] $end
$var wire 32 g" input23 [31:0] $end
$var wire 32 h" input24 [31:0] $end
$var wire 32 i" input25 [31:0] $end
$var wire 32 j" input26 [31:0] $end
$var wire 32 k" input27 [31:0] $end
$var wire 32 l" input28 [31:0] $end
$var wire 32 m" input29 [31:0] $end
$var wire 32 n" input3 [31:0] $end
$var wire 32 o" input30 [31:0] $end
$var wire 32 p" input31 [31:0] $end
$var wire 32 q" input4 [31:0] $end
$var wire 32 r" input5 [31:0] $end
$var wire 32 s" input6 [31:0] $end
$var wire 32 t" input7 [31:0] $end
$var wire 32 u" input8 [31:0] $end
$var wire 32 v" input9 [31:0] $end
$var wire 32 w" out [31:0] $end
$upscope $end
$scope begin registerGen[1] $end
$scope module register $end
$var wire 1 L clk $end
$var wire 32 x" d [31:0] $end
$var wire 1 y" wrenable $end
$var reg 32 z" q [31:0] $end
$upscope $end
$scope begin genblk2 $end
$upscope $end
$upscope $end
$scope begin registerGen[2] $end
$scope module register $end
$var wire 1 L clk $end
$var wire 32 {" d [31:0] $end
$var wire 1 |" wrenable $end
$var reg 32 }" q [31:0] $end
$upscope $end
$scope begin genblk2 $end
$upscope $end
$upscope $end
$scope begin registerGen[3] $end
$scope module register $end
$var wire 1 L clk $end
$var wire 32 ~" d [31:0] $end
$var wire 1 !# wrenable $end
$var reg 32 "# q [31:0] $end
$upscope $end
$scope begin genblk2 $end
$upscope $end
$upscope $end
$scope begin registerGen[4] $end
$scope module register $end
$var wire 1 L clk $end
$var wire 32 ## d [31:0] $end
$var wire 1 $# wrenable $end
$var reg 32 %# q [31:0] $end
$upscope $end
$scope begin genblk2 $end
$upscope $end
$upscope $end
$scope begin registerGen[5] $end
$scope module register $end
$var wire 1 L clk $end
$var wire 32 &# d [31:0] $end
$var wire 1 '# wrenable $end
$var reg 32 (# q [31:0] $end
$upscope $end
$scope begin genblk2 $end
$upscope $end
$upscope $end
$scope begin registerGen[6] $end
$scope module register $end
$var wire 1 L clk $end
$var wire 32 )# d [31:0] $end
$var wire 1 *# wrenable $end
$var reg 32 +# q [31:0] $end
$upscope $end
$scope begin genblk2 $end
$upscope $end
$upscope $end
$scope begin registerGen[7] $end
$scope module register $end
$var wire 1 L clk $end
$var wire 32 ,# d [31:0] $end
$var wire 1 -# wrenable $end
$var reg 32 .# q [31:0] $end
$upscope $end
$scope begin genblk2 $end
$upscope $end
$upscope $end
$scope begin registerGen[8] $end
$scope module register $end
$var wire 1 L clk $end
$var wire 32 /# d [31:0] $end
$var wire 1 0# wrenable $end
$var reg 32 1# q [31:0] $end
$upscope $end
$scope begin genblk2 $end
$upscope $end
$upscope $end
$scope begin registerGen[9] $end
$scope module register $end
$var wire 1 L clk $end
$var wire 32 2# d [31:0] $end
$var wire 1 3# wrenable $end
$var reg 32 4# q [31:0] $end
$upscope $end
$scope begin genblk2 $end
$upscope $end
$upscope $end
$scope begin registerGen[10] $end
$scope module register $end
$var wire 1 L clk $end
$var wire 32 5# d [31:0] $end
$var wire 1 6# wrenable $end
$var reg 32 7# q [31:0] $end
$upscope $end
$scope begin genblk2 $end
$upscope $end
$upscope $end
$scope begin registerGen[11] $end
$scope module register $end
$var wire 1 L clk $end
$var wire 32 8# d [31:0] $end
$var wire 1 9# wrenable $end
$var reg 32 :# q [31:0] $end
$upscope $end
$scope begin genblk2 $end
$upscope $end
$upscope $end
$scope begin registerGen[12] $end
$scope module register $end
$var wire 1 L clk $end
$var wire 32 ;# d [31:0] $end
$var wire 1 <# wrenable $end
$var reg 32 =# q [31:0] $end
$upscope $end
$scope begin genblk2 $end
$upscope $end
$upscope $end
$scope begin registerGen[13] $end
$scope module register $end
$var wire 1 L clk $end
$var wire 32 ># d [31:0] $end
$var wire 1 ?# wrenable $end
$var reg 32 @# q [31:0] $end
$upscope $end
$scope begin genblk2 $end
$upscope $end
$upscope $end
$scope begin registerGen[14] $end
$scope module register $end
$var wire 1 L clk $end
$var wire 32 A# d [31:0] $end
$var wire 1 B# wrenable $end
$var reg 32 C# q [31:0] $end
$upscope $end
$scope begin genblk2 $end
$upscope $end
$upscope $end
$scope begin registerGen[15] $end
$scope module register $end
$var wire 1 L clk $end
$var wire 32 D# d [31:0] $end
$var wire 1 E# wrenable $end
$var reg 32 F# q [31:0] $end
$upscope $end
$scope begin genblk2 $end
$upscope $end
$upscope $end
$scope begin registerGen[16] $end
$scope module register $end
$var wire 1 L clk $end
$var wire 32 G# d [31:0] $end
$var wire 1 H# wrenable $end
$var reg 32 I# q [31:0] $end
$upscope $end
$scope begin genblk2 $end
$upscope $end
$upscope $end
$scope begin registerGen[17] $end
$scope module register $end
$var wire 1 L clk $end
$var wire 32 J# d [31:0] $end
$var wire 1 K# wrenable $end
$var reg 32 L# q [31:0] $end
$upscope $end
$scope begin genblk2 $end
$upscope $end
$upscope $end
$scope begin registerGen[18] $end
$scope module register $end
$var wire 1 L clk $end
$var wire 32 M# d [31:0] $end
$var wire 1 N# wrenable $end
$var reg 32 O# q [31:0] $end
$upscope $end
$scope begin genblk2 $end
$upscope $end
$upscope $end
$scope begin registerGen[19] $end
$scope module register $end
$var wire 1 L clk $end
$var wire 32 P# d [31:0] $end
$var wire 1 Q# wrenable $end
$var reg 32 R# q [31:0] $end
$upscope $end
$scope begin genblk2 $end
$upscope $end
$upscope $end
$scope begin registerGen[20] $end
$scope module register $end
$var wire 1 L clk $end
$var wire 32 S# d [31:0] $end
$var wire 1 T# wrenable $end
$var reg 32 U# q [31:0] $end
$upscope $end
$scope begin genblk2 $end
$upscope $end
$upscope $end
$scope begin registerGen[21] $end
$scope module register $end
$var wire 1 L clk $end
$var wire 32 V# d [31:0] $end
$var wire 1 W# wrenable $end
$var reg 32 X# q [31:0] $end
$upscope $end
$scope begin genblk2 $end
$upscope $end
$upscope $end
$scope begin registerGen[22] $end
$scope module register $end
$var wire 1 L clk $end
$var wire 32 Y# d [31:0] $end
$var wire 1 Z# wrenable $end
$var reg 32 [# q [31:0] $end
$upscope $end
$scope begin genblk2 $end
$upscope $end
$upscope $end
$scope begin registerGen[23] $end
$scope module register $end
$var wire 1 L clk $end
$var wire 32 \# d [31:0] $end
$var wire 1 ]# wrenable $end
$var reg 32 ^# q [31:0] $end
$upscope $end
$scope begin genblk2 $end
$upscope $end
$upscope $end
$scope begin registerGen[24] $end
$scope module register $end
$var wire 1 L clk $end
$var wire 32 _# d [31:0] $end
$var wire 1 `# wrenable $end
$var reg 32 a# q [31:0] $end
$upscope $end
$scope begin genblk2 $end
$upscope $end
$upscope $end
$scope begin registerGen[25] $end
$scope module register $end
$var wire 1 L clk $end
$var wire 32 b# d [31:0] $end
$var wire 1 c# wrenable $end
$var reg 32 d# q [31:0] $end
$upscope $end
$scope begin genblk2 $end
$upscope $end
$upscope $end
$scope begin registerGen[26] $end
$scope module register $end
$var wire 1 L clk $end
$var wire 32 e# d [31:0] $end
$var wire 1 f# wrenable $end
$var reg 32 g# q [31:0] $end
$upscope $end
$scope begin genblk2 $end
$upscope $end
$upscope $end
$scope begin registerGen[27] $end
$scope module register $end
$var wire 1 L clk $end
$var wire 32 h# d [31:0] $end
$var wire 1 i# wrenable $end
$var reg 32 j# q [31:0] $end
$upscope $end
$scope begin genblk2 $end
$upscope $end
$upscope $end
$scope begin registerGen[28] $end
$scope module register $end
$var wire 1 L clk $end
$var wire 32 k# d [31:0] $end
$var wire 1 l# wrenable $end
$var reg 32 m# q [31:0] $end
$upscope $end
$scope begin genblk2 $end
$upscope $end
$upscope $end
$scope begin registerGen[29] $end
$scope module register $end
$var wire 1 L clk $end
$var wire 32 n# d [31:0] $end
$var wire 1 o# wrenable $end
$var reg 32 p# q [31:0] $end
$upscope $end
$scope begin genblk3 $end
$upscope $end
$upscope $end
$scope begin registerGen[30] $end
$scope module register $end
$var wire 1 L clk $end
$var wire 32 q# d [31:0] $end
$var wire 1 r# wrenable $end
$var reg 32 s# q [31:0] $end
$upscope $end
$scope begin genblk2 $end
$upscope $end
$upscope $end
$scope begin registerGen[31] $end
$scope module register $end
$var wire 1 L clk $end
$var wire 32 t# d [31:0] $end
$var wire 1 u# wrenable $end
$var reg 32 v# q [31:0] $end
$upscope $end
$scope begin genblk2 $end
$upscope $end
$upscope $end
$upscope $end
$scope module ALU $end
$var wire 32 w# a [31:0] $end
$var wire 32 x# b [31:0] $end
$var wire 6 y# op [5:0] $end
$var reg 32 z# alu_res [31:0] $end
$var reg 1 {# zeroflag $end
$upscope $end
$scope module MemMux $end
$var wire 1 = address $end
$var wire 32 |# in0 [31:0] $end
$var wire 32 }# in1 [31:0] $end
$var wire 32 ~# out [31:0] $end
$upscope $end
$scope module RegMux $end
$var wire 1 D address $end
$var wire 32 !$ in0 [31:0] $end
$var wire 32 "$ in1 [31:0] $end
$var wire 32 #$ out [31:0] $end
$upscope $end
$scope module DstMux $end
$var wire 2 $$ address [1:0] $end
$var wire 5 %$ in0 [4:0] $end
$var wire 5 &$ in1 [4:0] $end
$var wire 5 '$ in2 [4:0] $end
$var wire 5 ($ out [4:0] $end
$upscope $end
$scope module AluMuxA $end
$var wire 1 $ address $end
$var wire 32 )$ in0 [31:0] $end
$var wire 32 *$ in1 [31:0] $end
$var wire 32 +$ out [31:0] $end
$upscope $end
$scope module AluMuxB $end
$var wire 2 ,$ address [1:0] $end
$var wire 32 -$ in0 [31:0] $end
$var wire 32 .$ in1 [31:0] $end
$var wire 32 /$ in2 [31:0] $end
$var wire 32 0$ out [31:0] $end
$upscope $end
$scope module PCMux $end
$var wire 2 1$ address [1:0] $end
$var wire 32 2$ in0 [31:0] $end
$var wire 32 3$ in1 [31:0] $end
$var wire 32 4$ in2 [31:0] $end
$var wire 32 5$ out [31:0] $end
$upscope $end
$upscope $end
$scope begin registerGen $end
$upscope $end
$upscope $end
$enddefinitions $end
#0
$dumpvars
bx 5$
bx 4$
bx 3$
b0 2$
bx 1$
bx 0$
b0 /$
b0 .$
b1 -$
bx ,$
bx +$
b0 *$
b0 )$
bx ($
b11111 '$
bx &$
bx %$
bx $$
bx #$
b0 "$
bx !$
b0 ~#
b0 }#
bx |#
x{#
bx z#
bx y#
bx x#
bx w#
b0 v#
xu#
bx t#
b0 s#
xr#
bx q#
b111111111111111 p#
xo#
bx n#
b0 m#
xl#
bx k#
b0 j#
xi#
bx h#
b0 g#
xf#
bx e#
b0 d#
xc#
bx b#
b0 a#
x`#
bx _#
b0 ^#
x]#
bx \#
b0 [#
xZ#
bx Y#
b0 X#
xW#
bx V#
b0 U#
xT#
bx S#
b0 R#
xQ#
bx P#
b0 O#
xN#
bx M#
b0 L#
xK#
bx J#
b0 I#
xH#
bx G#
b0 F#
xE#
bx D#
b0 C#
xB#
bx A#
b0 @#
x?#
bx >#
b0 =#
x<#
bx ;#
b0 :#
x9#
bx 8#
b0 7#
x6#
bx 5#
b0 4#
x3#
bx 2#
b0 1#
x0#
bx /#
b0 .#
x-#
bx ,#
b0 +#
x*#
bx )#
b0 (#
x'#
bx &#
b0 %#
x$#
bx ##
b0 "#
x!#
bx ~"
b0 }"
x|"
bx {"
b0 z"
xy"
bx x"
bx w"
b0 v"
b0 u"
b0 t"
b0 s"
b0 r"
b0 q"
b0 p"
b0 o"
b0 n"
b111111111111111 m"
b0 l"
b0 k"
b0 j"
b0 i"
b0 h"
b0 g"
b0 f"
b0 e"
b0 d"
b0 c"
b0 b"
b0 a"
b0 `"
b0 _"
b0 ^"
b0 ]"
b0 \"
b0 ["
b0 Z"
b0 Y"
b0 X"
b0 W"
bx V"
bx U"
b0 T"
b0 S"
b0 R"
b0 Q"
b0 P"
b0 O"
b0 N"
b0 M"
b0 L"
b111111111111111 K"
b0 J"
b0 I"
b0 H"
b0 G"
b0 F"
b0 E"
b0 D"
b0 C"
b0 B"
b0 A"
b0 @"
b0 ?"
b0 >"
b0 ="
b0 <"
b0 ;"
b0 :"
b0 9"
b0 8"
b0 7"
b0 6"
b0 5"
bx 4"
x3"
b0 2"
bx 1"
bx 0"
bx /"
bx ."
bx -"
bx ,"
bx +"
bx *"
bx )"
bx ("
bx '"
bx &"
bx %"
b0xxxxxxxxxxxxxxxxxxxxxxxxxx $"
bx #"
bx ""
bx !"
bx ~
bx }
bx |
bx {
b111000000010010000000011000110 z
b111000000010010000000011000110 y
b0 x
b0 w
bx v
1u
bx t
b0 s
bx r
b0 q
b0xxxxxxxxxxxxxxxxxxxxxxxxxx p
b0 o
1n
bx m
b0 l
1k
bx j
b0 i
1h
b111000000010010000000011000110 g
b0 f
bx e
b0 d
bx c
bx b
bx a
bx `
x_
x^
x]
x\
bx [
xZ
1Y
1X
bx W
xV
xU
xT
bx S
xR
bx Q
b0 P
bx O
bx N
xM
0L
xK
bx J
b0 I
bx H
bx G
bx F
xE
xD
b0 C
xB
bx A
bx @
b0 ?
x>
1=
b0 <
1;
bx :
bx 9
bx 8
bx 7
bx 6
bx 5
bx 4
bx 3
bx 2
b111000000010010000000011000110 1
b0xxxxxxxxxxxxxxxxxxxxxxxxxx 0
b0 /
x.
b0 -
x,
bx +
bx *
bx )
bx (
x'
b0 &
bx %
x$
bx #
bx "
0!
$end
#5
03"
0u#
0r#
0o#
0l#
0i#
0f#
0c#
0`#
0]#
0Z#
0W#
0T#
0Q#
0N#
0K#
0H#
0E#
0B#
0?#
0<#
09#
06#
03#
00#
0-#
0*#
0'#
0$#
0!#
0|"
0y"
x{#
b0 `
b0 c
0_
0K
0V
0.
b0 [
b0 @
b0 e
b0 5$
b0 A
b0 1$
b0 S
b1 )
b1 x#
b1 0$
b0 %
b0 ,$
b0 W
b0 ,"
b0 0"
b1001 3
b1001 ."
b1001 /"
b1001 ($
b0 2
b0 $$
0]
0D
0^
0E
0U
0,
0T
0'
b0 Q
b0 #
b0 y#
0R
0$
1X
1;
0Z
0>
1Y
b111000000010010000000011000110 1
b111000000010010000000011000110 g
b111000000010010000000011000110 y
b111000000010010000000011000110 z
b0 ?
b0 w
b0 ~#
1=
0\
0B
b111000000010010000000011000110 i
b111000000010010000000011000110 <
b111000000010010000000011000110 "$
bx l
bx &
bx )$
bx o
bx -
bx x
bx .$
b10010000000011000110 {
b10010000000011000110 0
b10010000000011000110 p
b10010000000011000110 $"
b10010000000011000110 4
b10010000000011000110 %"
b11000110 ""
b11000110 J
b11000110 r
b11000110 '"
b11000110 7
b11000110 &"
b1110 #"
b1110 6
b1110 O
b1110 b
b0 }
b0 F
b0 j
b0 ("
b0 U"
b0 9
b0 *"
b0 4"
b1001 ~
b0 G
b0 m
b0 )"
b0 w"
b1001 :
b1001 +"
b1001 V"
b1001 %$
b0 |
b0 8
b0 &$
b110 !"
b110 5
b110 N
b110 a
1!
1L
#10
b1 d
b1 P
0!
0L
#15
b1 z#
b1 +
b1 t
b1 3$
0{#
0M
b0 o
b0 -
b0 x
b0 .$
b0 l
b0 &
b0 )$
b1 `
b1 c
b100000 Q
b100000 #
b100000 y#
b1 [
b1 @
b1 e
b1 5$
b1 A
b1 1$
1R
b0 (
b0 w#
b0 +$
1$
1_
1K
1\
1B
1X
1;
1Y
b111000000010010000000011000110 1
b111000000010010000000011000110 g
b111000000010010000000011000110 y
b111000000010010000000011000110 z
b0 ?
b0 w
b0 ~#
1=
1!
1L
#20
b11000110 s
b11000110 I
b11000110 /$
b1 v
b1 H
b1 -"
b1 1"
b1 x"
b1 {"
b1 ~"
b1 ##
b1 &#
b1 )#
b1 ,#
b1 /#
b1 2#
b1 5#
b1 8#
b1 ;#
b1 >#
b1 A#
b1 D#
b1 G#
b1 J#
b1 M#
b1 P#
b1 S#
b1 V#
b1 Y#
b1 \#
b1 _#
b1 b#
b1 e#
b1 h#
b1 k#
b1 n#
b1 q#
b1 t#
b1 #$
b1 *
b1 |#
b1 !$
b1 4$
b100 d
b100 P
0!
0L
#25
0{#
b100 `
b100 c
1U
1,
1T
1'
0_
0K
b0 [
b0 @
b0 e
b0 5$
b0 A
b0 1$
b0 Q
b0 #
b0 y#
0R
0$
0X
0;
0Y
0=
0\
0B
b1 f
b111000000000100000000000001000 1
b111000000000100000000000001000 g
b111000000000100000000000001000 y
b111000000000100000000000001000 z
b1 ?
b1 w
b1 ~#
b0 (
b0 w#
b0 +$
b1 C
b1 }#
b1 *$
1!
1L
#30
b1011 d
b1011 P
0!
0L
#35
b11000110 z#
b11000110 +
b11000110 t
b11000110 3$
0{#
b111000000000100000000000001000 i
b111000000000100000000000001000 <
b111000000000100000000000001000 "$
b1011 `
b1011 c
b10 S
b11000110 )
b11000110 x#
b11000110 0$
b10 %
b10 ,$
b1110 Q
b1110 #
b1110 y#
0U
0,
0T
0'
1!
1L
#40
b11000110 v
bx 1
bx g
bx y
bx z
b11000110 ?
b11000110 w
b11000110 ~#
b11000110 H
b11000110 -"
b11000110 1"
b11000110 x"
b11000110 {"
b11000110 ~"
b11000110 ##
b11000110 &#
b11000110 )#
b11000110 ,#
b11000110 /#
b11000110 2#
b11000110 5#
b11000110 8#
b11000110 ;#
b11000110 >#
b11000110 A#
b11000110 D#
b11000110 G#
b11000110 J#
b11000110 M#
b11000110 P#
b11000110 S#
b11000110 V#
b11000110 Y#
b11000110 \#
b11000110 _#
b11000110 b#
b11000110 e#
b11000110 h#
b11000110 k#
b11000110 n#
b11000110 q#
b11000110 t#
b11000110 #$
b11000110 *
b11000110 |#
b11000110 !$
b11000110 4$
b0 d
b0 P
0!
0L
#45
13#
0{#
bx `
bx c
1^
b1000000000 ,"
b1000000000 0"
1E
b0 S
b1 )
b1 x#
b1 0$
b0 %
b0 ,$
b0 Q
b0 #
b0 y#
bx i
bx <
bx "$
1!
1L
#50
0!
0L
#55
03#
b0 `
b0 c
1X
1;
1Y
b111000000000100000000000001000 1
b111000000000100000000000001000 g
b111000000000100000000000001000 y
b111000000000100000000000001000 z
b1 ?
b1 w
b1 ~#
1=
0^
b0 ,"
b0 0"
0E
b11000110 4#
b11000110 G
b11000110 m
b11000110 )"
b11000110 w"
b11000110 T"
b11000110 v"
1!
1L
#60
b1 d
b1 P
0!
0L
#65
b10 z#
b10 +
b10 t
b10 3$
1{#
1M
b1 `
b1 c
b100000 Q
b100000 #
b100000 y#
b1 [
b10 @
b10 e
b10 5$
b1 A
b1 1$
1R
b1 (
b1 w#
b1 +$
1$
1_
1K
1\
1B
1X
1;
1Y
b111000000000100000000000001000 1
b111000000000100000000000001000 g
b111000000000100000000000001000 y
b111000000000100000000000001000 z
b1 ?
b1 w
b1 ~#
1=
b111000000000100000000000001000 i
b111000000000100000000000001000 <
b111000000000100000000000001000 "$
b11000110 o
b11000110 -
b11000110 x
b11000110 .$
b100000000000001000 {
b100000000000001000 0
b100000000000001000 p
b100000000000001000 $"
b100000000000001000 4
b100000000000001000 %"
b1000 ""
b1000 J
b1000 r
b1000 '"
b1000 7
b1000 &"
b10 ~
b0 G
b0 m
b0 )"
b0 w"
b10 3
b10 ."
b10 /"
b10 ($
b10 :
b10 +"
b10 V"
b10 %$
b1000 !"
b1000 5
b1000 N
b1000 a
1!
1L
#70
b10 v
b10 H
b10 -"
b10 1"
b10 x"
b10 {"
b10 ~"
b10 ##
b10 &#
b10 )#
b10 ,#
b10 /#
b10 2#
b10 5#
b10 8#
b10 ;#
b10 >#
b10 A#
b10 D#
b10 G#
b10 J#
b10 M#
b10 P#
b10 S#
b10 V#
b10 Y#
b10 \#
b10 _#
b10 b#
b10 e#
b10 h#
b10 k#
b10 n#
b10 q#
b10 t#
b10 #$
b10 *
b10 |#
b10 !$
b10 4$
b1000 s
b1000 I
b1000 /$
b100 d
b100 P
0!
0L
#75
0{#
0M
b0 o
b0 -
b0 x
b0 .$
b10 f
b10 C
b10 }#
b10 *$
b100 `
b100 c
1U
1,
1T
1'
0_
0K
b0 [
b0 @
b0 e
b0 5$
b0 A
b0 1$
b0 Q
b0 #
b0 y#
0R
b0 (
b0 w#
b0 +$
0$
0X
0;
0Y
b10100000000000000000000000100 1
b10100000000000000000000000100 g
b10100000000000000000000000100 y
b10100000000000000000000000100 z
b10 ?
b10 w
b10 ~#
0=
0\
0B
1!
1L
#80
b1011 d
b1011 P
0!
0L
#85
b1000 z#
b1000 +
b1000 t
b1000 3$
0{#
b1011 `
b1011 c
b10 S
b1000 )
b1000 x#
b1000 0$
b10 %
b10 ,$
b1110 Q
b1110 #
b1110 y#
0U
0,
0T
0'
b10100000000000000000000000100 i
b10100000000000000000000000100 <
b10100000000000000000000000100 "$
1!
1L
#90
b1000 v
b1001000101000100000100010 1
b1001000101000100000100010 g
b1001000101000100000100010 y
b1001000101000100000100010 z
b1000 ?
b1000 w
b1000 ~#
b1000 H
b1000 -"
b1000 1"
b1000 x"
b1000 {"
b1000 ~"
b1000 ##
b1000 &#
b1000 )#
b1000 ,#
b1000 /#
b1000 2#
b1000 5#
b1000 8#
b1000 ;#
b1000 >#
b1000 A#
b1000 D#
b1000 G#
b1000 J#
b1000 M#
b1000 P#
b1000 S#
b1000 V#
b1000 Y#
b1000 \#
b1000 _#
b1000 b#
b1000 e#
b1000 h#
b1000 k#
b1000 n#
b1000 q#
b1000 t#
b1000 #$
b1000 *
b1000 |#
b1000 !$
b1000 4$
b0 d
b0 P
0!
0L
#95
1|"
0{#
b1001000101000100000100010 i
b1001000101000100000100010 <
b1001000101000100000100010 "$
bx `
bx c
1^
b100 ,"
b100 0"
1E
b0 S
b1 )
b1 x#
b1 0$
b0 %
b0 ,$
b0 Q
b0 #
b0 y#
1!
1L
#100
0!
0L
#105
0|"
b0 `
b0 c
1X
1;
1Y
b10100000000000000000000000100 1
b10100000000000000000000000100 g
b10100000000000000000000000100 y
b10100000000000000000000000100 z
b10 ?
b10 w
b10 ~#
1=
0^
b0 ,"
b0 0"
0E
b1000 o
b1000 -
b1000 x
b1000 .$
b1000 }"
b1000 G
b1000 m
b1000 )"
b1000 w"
b1000 A"
b1000 c"
1!
1L
#110
b1 d
b1 P
0!
0L
